0000.002 (0) Opened log file at time: Fri, 26 Feb 2016 15:42:22 +0000 on http://www.marlino.de/shop
0000.018 (0) UpdraftPlus WordPress backup plugin (http://updraftplus.com): 1.9.19 WP: 4.3.3 PHP: 5.6.17-0+deb8u1 (Linux sweb2b 3.16.0-4-amd64 #1 SMP Debian 3.16.7-ckt20-1+deb8u3 (2016-01-17) x86_64) MySQL: 5.5.37-0+wheezy1-log Server: Apache/2.4.10 (Debian) safe_mode: 0 max_execution_time: 900 memory_limit: 512M (used: 46.1M | 47M) multisite: N mcrypt: Y LANG: C ZipArchive::addFile: Y
0000.020 (0) Free space on disk containing Updraft's temporary directory: 130053.1 Mb
0000.053 (0) Tasks: Backup files:  (schedule: daily) Backup DB: 1 (schedule: daily)
0000.054 (0) Processed schedules. Tasks now: Backup files:  Backup DB: 
0000.059 (0) The backup apparently succeeded and is now complete
0000.060 (0) No email will be sent - this backup set was empty.
0000.061 (0) Die Sicherung war anscheinend erfolgreich und ist nun vollständig
