0000.007 (0) Opened log file at time: Thu, 09 Jun 2016 15:42:25 +0000 on http://www.marlino.de/shop
0000.025 (0) UpdraftPlus WordPress backup plugin (http://updraftplus.com): 1.9.19 WP: 4.3.4 PHP: 5.6.17-0+deb8u1 (Linux sweb2a 3.16.0-4-amd64 #1 SMP Debian 3.16.7-ckt20-1+deb8u3 (2016-01-17) x86_64) MySQL: 5.5.37-0+wheezy1-log Server: Apache/2.4.10 (Debian) safe_mode: 0 max_execution_time: 900 memory_limit: 512M (used: 47.1M | 48.3M) multisite: N mcrypt: Y LANG: C ZipArchive::addFile: Y
0000.030 (0) Free space on disk containing Updraft's temporary directory: 118644.6 Mb
0000.761 (0) Tasks: Backup files: 1 (schedule: daily) Backup DB:  (schedule: daily)
0000.766 (0) Processed schedules. Tasks now: Backup files: 1 Backup DB: 1
0000.791 (0) Requesting semaphore lock (fd)
0000.799 (0) Semaphore (fd) was stuck, set lock time to 2016-06-09 15:42:26
0000.803 (0) Semaphore (fd) reset to 1
0000.806 (0) Set semaphore last lock (fd) time to 2016-06-09 15:42:26
0000.809 (0) Semaphore lock (fd) complete
0000.825 (0) Backup run: resumption=0, nonce=765ad9e46afe, begun at=1465486945 (1s ago), job type=backup
0000.829 (0) Scheduling a resumption (1) after 600 seconds (1465487546) in case this run gets aborted
0000.908 (0) Checking if we have a zip executable available
0000.910 (0) Testing: /usr/bin/zip
0000.995 (0) Output: zip warning: binziptest/test.zip not found or empty
0000.999 (0) Output: adding: binziptest/subdir1/	(in=0) (out=0) (stored 0%)
0001.001 (0) Output: adding: binziptest/subdir1/subdir2/	(in=0) (out=0) (stored 0%)
0001.002 (0) Output: adding: binziptest/subdir1/subdir2/test.html	(in=127) (out=105) (deflated 17%)
0001.005 (0) Output: total bytes=127, compressed=105 -> 17% savings
0001.067 (0) Output: adding: binziptest/subdir1/subdir2/test2.html	(in=134) (out=109) (deflated 19%)
0001.070 (0) Output: total bytes=261, compressed=214 -> 18% savings
0001.107 (0) Working binary zip found: /usr/bin/zip
0001.112 (0) Zip engine: found/will use a binary zip: /usr/bin/zip
0001.113 (0) Creation of backups of directories: beginning
0001.120 (0) Beginning creation of dump of plugins (split every: 800 Mb)
0007.009 (0) Total entities for the zip file: 647 directories, 4669 files (0 skipped as non-modified), 162.2 Mb
0007.015 (0) Adding batch to zip file (UpdraftPlus_BinZip): over 2.0 seconds have passed since the last write (0 Mb, 1 (1) files added so far); re-opening (prior size: 0 Kb)
0000.000 (1) Opened log file at time: Thu, 09 Jun 2016 15:53:28 +0000 on http://www.marlino.de/shop
0000.005 (1) UpdraftPlus WordPress backup plugin (http://updraftplus.com): 1.9.19 WP: 4.3.4 PHP: 5.6.17-0+deb8u1 (Linux sweb2a 3.16.0-4-amd64 #1 SMP Debian 3.16.7-ckt20-1+deb8u3 (2016-01-17) x86_64) MySQL: 5.5.37-0+wheezy1-log Server: Apache/2.4.10 (Debian) safe_mode: 0 max_execution_time: 900 memory_limit: 512M (used: 47M | 48.5M) multisite: N mcrypt: Y LANG: C ZipArchive::addFile: Y
0000.012 (1) Free space on disk containing Updraft's temporary directory: 118637.3 Mb
0000.017 (1) This backup task began over 2 days ago: aborting (1465487608.6321, )
44741.653 (0) The time we have been running (44741.3) is approaching the resumption interval (600) - increasing resumption interval to 44772
44742.325 (0) Zip: backup_2016-06-09-1742_Marlino_Shop_765ad9e46afe-plugins.zip.tmp: 100 files added (on-disk size: 137.3 Kb)
44742.483 (0) Adding batch to zip file (UpdraftPlus_BinZip): over 25 Mb added on this batch (25.4 Mb, 4669 files batched, 129 (130) added so far); re-opening (prior size: 137.3 Kb)
45322.886 (0) The time we have been running (45322.8) is approaching the resumption interval (44772) - increasing resumption interval to 45353
45322.909 (0) Adding batch to zip file (UpdraftPlus_BinZip): over 25 Mb added on this batch (25.7 Mb, 4669 files batched, 1 (131) added so far); re-opening (prior size: 137.3 Kb)
45525.343 (0) The time we have been running (45525.3) is approaching the resumption interval (45353) - increasing resumption interval to 45556
45525.408 (0) Adding batch to zip file (UpdraftPlus_BinZip): over 25 Mb added on this batch (26.3 Mb, 4669 files batched, 1 (132) added so far); re-opening (prior size: 137.3 Kb)
45568.400 (0) The time we have been running (45568.3) is approaching the resumption interval (45556) - increasing resumption interval to 45599
45568.429 (0) Adding batch to zip file (UpdraftPlus_BinZip): over 25 Mb added on this batch (26.6 Mb, 4669 files batched, 1 (133) added so far); re-opening (prior size: 137.3 Kb)
48338.568 (0) The time we have been running (48338.3) is approaching the resumption interval (45599) - increasing resumption interval to 48369
48338.760 (0) Adding batch to zip file (UpdraftPlus_BinZip): over 25 Mb added on this batch (26.6 Mb, 4669 files batched, 1 (134) added so far); re-opening (prior size: 137.3 Kb)
51938.010 (0) The time we have been running (51937.9) is approaching the resumption interval (48369) - increasing resumption interval to 51968
51938.019 (0) Adding batch to zip file (UpdraftPlus_BinZip): over 25 Mb added on this batch (26.9 Mb, 4669 files batched, 1 (135) added so far); re-opening (prior size: 137.3 Kb)
58928.273 (0) The time we have been running (58928.2) is approaching the resumption interval (51968) - increasing resumption interval to 58959
58928.289 (0) Adding batch to zip file (UpdraftPlus_BinZip): over 25 Mb added on this batch (27.2 Mb, 4669 files batched, 1 (136) added so far); re-opening (prior size: 137.3 Kb)
59047.867 (0) The time we have been running (59047.8) is approaching the resumption interval (58959) - increasing resumption interval to 59078
59047.901 (0) Adding batch to zip file (UpdraftPlus_BinZip): over 25 Mb added on this batch (27.3 Mb, 4669 files batched, 1 (137) added so far); re-opening (prior size: 137.3 Kb)
131140.893 (0) The time we have been running (131140.8) is approaching the resumption interval (59078) - increasing resumption interval to 131171
131140.967 (0) Adding batch to zip file (UpdraftPlus_BinZip): over 25 Mb added on this batch (27.5 Mb, 4669 files batched, 1 (138) added so far); re-opening (prior size: 137.3 Kb)
131715.992 (0) The time we have been running (131715.9) is approaching the resumption interval (131171) - increasing resumption interval to 131746
131716.066 (0) Adding batch to zip file (UpdraftPlus_BinZip): over 25 Mb added on this batch (27.5 Mb, 4669 files batched, 1 (139) added so far); re-opening (prior size: 137.3 Kb)
131935.627 (0) The time we have been running (131935.6) is approaching the resumption interval (131746) - increasing resumption interval to 131966
131935.677 (0) Adding batch to zip file (UpdraftPlus_BinZip): over 25 Mb added on this batch (27.7 Mb, 4669 files batched, 1 (140) added so far); re-opening (prior size: 137.3 Kb)
131978.407 (0) The time we have been running (131978.4) is approaching the resumption interval (131966) - increasing resumption interval to 132009
131978.481 (0) Adding batch to zip file (UpdraftPlus_BinZip): over 25 Mb added on this batch (27.9 Mb, 4669 files batched, 1 (141) added so far); re-opening (prior size: 137.3 Kb)
134737.788 (0) The time we have been running (134737.7) is approaching the resumption interval (132009) - increasing resumption interval to 134768
134737.805 (0) Adding batch to zip file (UpdraftPlus_BinZip): over 25 Mb added on this batch (28.1 Mb, 4669 files batched, 1 (142) added so far); re-opening (prior size: 137.3 Kb)
138337.974 (0) The time we have been running (138337.8) is approaching the resumption interval (134768) - increasing resumption interval to 138368
138337.997 (0) Adding batch to zip file (UpdraftPlus_BinZip): over 25 Mb added on this batch (28.4 Mb, 4669 files batched, 1 (143) added so far); re-opening (prior size: 137.3 Kb)
217538.616 (0) The time we have been running (217538.6) is approaching the resumption interval (138368) - increasing resumption interval to 217569
217538.627 (0) Adding batch to zip file (UpdraftPlus_BinZip): over 25 Mb added on this batch (28.4 Mb, 4669 files batched, 1 (144) added so far); re-opening (prior size: 137.3 Kb)
218124.296 (0) The time we have been running (218124.2) is approaching the resumption interval (217569) - increasing resumption interval to 218155
218124.323 (0) Adding batch to zip file (UpdraftPlus_BinZip): over 25 Mb added on this batch (28.5 Mb, 4669 files batched, 1 (145) added so far); re-opening (prior size: 137.3 Kb)
218328.470 (0) The time we have been running (218328.4) is approaching the resumption interval (218155) - increasing resumption interval to 218359
218328.506 (0) Adding batch to zip file (UpdraftPlus_BinZip): over 25 Mb added on this batch (28.7 Mb, 4669 files batched, 1 (146) added so far); re-opening (prior size: 137.3 Kb)
218363.087 (0) The time we have been running (218363) is approaching the resumption interval (218359) - increasing resumption interval to 218394
218363.163 (0) Adding batch to zip file (UpdraftPlus_BinZip): over 25 Mb added on this batch (28.8 Mb, 4669 files batched, 1 (147) added so far); re-opening (prior size: 137.3 Kb)
221137.595 (0) The time we have been running (221137.5) is approaching the resumption interval (218394) - increasing resumption interval to 221168
221137.855 (0) Adding batch to zip file (UpdraftPlus_BinZip): over 25 Mb added on this batch (29 Mb, 4669 files batched, 1 (148) added so far); re-opening (prior size: 137.3 Kb)
224739.383 (0) The time we have been running (224738.1) is approaching the resumption interval (221168) - increasing resumption interval to 224769
224739.942 (0) Adding batch to zip file (UpdraftPlus_BinZip): over 25 Mb added on this batch (29 Mb, 4669 files batched, 1 (149) added so far); re-opening (prior size: 137.3 Kb)
