0000.006 (0) Opened log file at time: Sat, 25 Jun 2016 15:42:05 +0000 on http://www.marlino.de/shop
0000.022 (0) UpdraftPlus WordPress backup plugin (http://updraftplus.com): 1.9.19 WP: 4.3.5 PHP: 5.6.17-0+deb8u1 (Linux sweb2b 3.16.0-4-amd64 #1 SMP Debian 3.16.7-ckt20-1+deb8u3 (2016-01-17) x86_64) MySQL: 5.5.37-0+wheezy1-log Server: Apache/2.4.10 (Debian) safe_mode: 0 max_execution_time: 900 memory_limit: 512M (used: 46.2M | 47.5M) multisite: N mcrypt: Y LANG: C ZipArchive::addFile: Y
0000.024 (0) Free space on disk containing Updraft's temporary directory: 120781 Mb
0000.129 (0) Tasks: Backup files: 1 (schedule: daily) Backup DB:  (schedule: daily)
0000.134 (0) Processed schedules. Tasks now: Backup files: 1 Backup DB: 1
0000.149 (0) Requesting semaphore lock (fd)
0000.159 (0) Semaphore (fd) was stuck, set lock time to 2016-06-25 15:42:05
0000.164 (0) Semaphore (fd) reset to 1
0000.167 (0) Set semaphore last lock (fd) time to 2016-06-25 15:42:05
0000.169 (0) Semaphore lock (fd) complete
0000.183 (0) Backup run: resumption=0, nonce=f04f523702d8, begun at=1466869325 (0s ago), job type=backup
0000.185 (0) Scheduling a resumption (1) after 600 seconds (1466869925) in case this run gets aborted
0000.209 (0) Checking if we have a zip executable available
0000.211 (0) Testing: /usr/bin/zip
0000.258 (0) Output: zip warning: binziptest/test.zip not found or empty
0000.261 (0) Output: adding: binziptest/subdir1/	(in=0) (out=0) (stored 0%)
0000.263 (0) Output: adding: binziptest/subdir1/subdir2/	(in=0) (out=0) (stored 0%)
0000.264 (0) Output: adding: binziptest/subdir1/subdir2/test.html	(in=127) (out=105) (deflated 17%)
0000.268 (0) Output: total bytes=127, compressed=105 -> 17% savings
0000.308 (0) Output: adding: binziptest/subdir1/subdir2/test2.html	(in=134) (out=109) (deflated 19%)
0000.311 (0) Output: total bytes=261, compressed=214 -> 18% savings
0000.336 (0) Working binary zip found: /usr/bin/zip
0000.340 (0) Zip engine: found/will use a binary zip: /usr/bin/zip
0000.342 (0) Creation of backups of directories: beginning
0000.352 (0) Beginning creation of dump of plugins (split every: 800 Mb)
0003.355 (0) Total entities for the zip file: 647 directories, 4669 files (0 skipped as non-modified), 162.2 Mb
0003.383 (0) Adding batch to zip file (UpdraftPlus_BinZip): over 2.0 seconds have passed since the last write (0 Mb, 1 (1) files added so far); re-opening (prior size: 0 Kb)
0000.000 (1) Opened log file at time: Sat, 25 Jun 2016 15:55:07 +0000 on http://www.marlino.de/shop
0000.005 (1) UpdraftPlus WordPress backup plugin (http://updraftplus.com): 1.9.19 WP: 4.3.5 PHP: 5.6.17-0+deb8u1 (Linux sweb2b 3.16.0-4-amd64 #1 SMP Debian 3.16.7-ckt20-1+deb8u3 (2016-01-17) x86_64) MySQL: 5.5.37-0+wheezy1-log Server: Apache/2.4.10 (Debian) safe_mode: 0 max_execution_time: 900 memory_limit: 512M (used: 46.5M | 47.3M) multisite: N mcrypt: Y LANG: C ZipArchive::addFile: Y
0000.009 (1) Free space on disk containing Updraft's temporary directory: 120773 Mb
0000.011 (1) This backup task began over 2 days ago: aborting (1466870107.2429, )
40981.148 (0) The time we have been running (40981.1) is approaching the resumption interval (600) - increasing resumption interval to 41012
40981.236 (0) Zip: backup_2016-06-25-1742_Marlino_Shop_f04f523702d8-plugins.zip.tmp: 100 files added (on-disk size: 137.3 Kb)
40981.268 (0) Adding batch to zip file (UpdraftPlus_BinZip): over 25 Mb added on this batch (25.4 Mb, 4669 files batched, 129 (130) added so far); re-opening (prior size: 137.3 Kb)
44578.639 (0) The time we have been running (44578.6) is approaching the resumption interval (41012) - increasing resumption interval to 44609
44578.648 (0) Adding batch to zip file (UpdraftPlus_BinZip): over 25 Mb added on this batch (25.7 Mb, 4669 files batched, 1 (131) added so far); re-opening (prior size: 137.3 Kb)
48177.811 (0) The time we have been running (48177.7) is approaching the resumption interval (44609) - increasing resumption interval to 48208
48177.839 (0) Adding batch to zip file (UpdraftPlus_BinZip): over 25 Mb added on this batch (26.3 Mb, 4669 files batched, 1 (132) added so far); re-opening (prior size: 137.3 Kb)
127381.222 (0) The time we have been running (127381.2) is approaching the resumption interval (48208) - increasing resumption interval to 127412
127381.310 (0) Adding batch to zip file (UpdraftPlus_BinZip): over 25 Mb added on this batch (26.6 Mb, 4669 files batched, 1 (133) added so far); re-opening (prior size: 137.3 Kb)
130979.211 (0) The time we have been running (130978.9) is approaching the resumption interval (127412) - increasing resumption interval to 131009
130979.241 (0) Adding batch to zip file (UpdraftPlus_BinZip): over 25 Mb added on this batch (26.6 Mb, 4669 files batched, 1 (134) added so far); re-opening (prior size: 137.3 Kb)
134578.449 (0) The time we have been running (134578.4) is approaching the resumption interval (131009) - increasing resumption interval to 134609
134578.475 (0) Adding batch to zip file (UpdraftPlus_BinZip): over 25 Mb added on this batch (26.9 Mb, 4669 files batched, 1 (135) added so far); re-opening (prior size: 137.3 Kb)
153347.864 (0) The time we have been running (153347.8) is approaching the resumption interval (134609) - increasing resumption interval to 153378
153347.870 (0) Adding batch to zip file (UpdraftPlus_BinZip): over 25 Mb added on this batch (27.2 Mb, 4669 files batched, 1 (136) added so far); re-opening (prior size: 137.3 Kb)
162468.482 (0) The time we have been running (162468.4) is approaching the resumption interval (153378) - increasing resumption interval to 162499
162468.504 (0) Adding batch to zip file (UpdraftPlus_BinZip): over 25 Mb added on this batch (27.3 Mb, 4669 files batched, 1 (137) added so far); re-opening (prior size: 137.3 Kb)
162527.979 (0) The time we have been running (162528) is approaching the resumption interval (162499) - increasing resumption interval to 162558
162527.993 (0) Adding batch to zip file (UpdraftPlus_BinZip): over 25 Mb added on this batch (27.5 Mb, 4669 files batched, 1 (138) added so far); re-opening (prior size: 137.3 Kb)
162557.885 (0) The time we have been running (162557.9) is approaching the resumption interval (162558) - increasing resumption interval to 162588
162557.890 (0) Adding batch to zip file (UpdraftPlus_BinZip): over 25 Mb added on this batch (27.5 Mb, 4669 files batched, 1 (139) added so far); re-opening (prior size: 137.3 Kb)
171527.696 (0) The time we have been running (171527.5) is approaching the resumption interval (162588) - increasing resumption interval to 171558
171527.945 (0) Adding batch to zip file (UpdraftPlus_BinZip): over 25 Mb added on this batch (27.7 Mb, 4669 files batched, 1 (140) added so far); re-opening (prior size: 137.3 Kb)
184097.384 (0) The time we have been running (184097.3) is approaching the resumption interval (171558) - increasing resumption interval to 184128
184097.425 (0) Adding batch to zip file (UpdraftPlus_BinZip): over 25 Mb added on this batch (27.9 Mb, 4669 files batched, 1 (141) added so far); re-opening (prior size: 137.3 Kb)
184787.323 (0) The time we have been running (184787.3) is approaching the resumption interval (184128) - increasing resumption interval to 184818
184787.351 (0) Adding batch to zip file (UpdraftPlus_BinZip): over 25 Mb added on this batch (28.1 Mb, 4669 files batched, 1 (142) added so far); re-opening (prior size: 137.3 Kb)
184848.382 (0) The time we have been running (184848.4) is approaching the resumption interval (184818) - increasing resumption interval to 184879
184848.391 (0) Adding batch to zip file (UpdraftPlus_BinZip): over 25 Mb added on this batch (28.4 Mb, 4669 files batched, 1 (143) added so far); re-opening (prior size: 137.3 Kb)
213779.314 (0) The time we have been running (213779.2) is approaching the resumption interval (184879) - increasing resumption interval to 213810
213779.331 (0) Adding batch to zip file (UpdraftPlus_BinZip): over 25 Mb added on this batch (28.4 Mb, 4669 files batched, 1 (144) added so far); re-opening (prior size: 137.3 Kb)
217378.756 (0) The time we have been running (217378.7) is approaching the resumption interval (213810) - increasing resumption interval to 217409
217378.793 (0) Adding batch to zip file (UpdraftPlus_BinZip): over 25 Mb added on this batch (28.5 Mb, 4669 files batched, 1 (145) added so far); re-opening (prior size: 137.3 Kb)
220978.224 (0) The time we have been running (220978.2) is approaching the resumption interval (217409) - increasing resumption interval to 221009
220978.234 (0) Adding batch to zip file (UpdraftPlus_BinZip): over 25 Mb added on this batch (28.7 Mb, 4669 files batched, 1 (146) added so far); re-opening (prior size: 137.3 Kb)
300179.604 (0) PHP event: code E_WARNING: filesize(): stat failed for /var/www/1366716627/htdocs/shop/wp-content/updraft/backup_2016-06-25-1742_Marlino_Shop_f04f523702d8-plugins.zip.tmp (line 1906, wp-content/plugins/updraftplus/backup.php)
300179.695 (0) The time we have been running (300179.7) is approaching the resumption interval (221009) - increasing resumption interval to 300210
300179.727 (0) Adding batch to zip file (UpdraftPlus_BinZip): over 25 Mb added on this batch (28.8 Mb, 4669 files batched, 1 (147) added so far); re-opening (prior size: 0 Kb)
303779.051 (0) PHP event: code E_WARNING: filesize(): stat failed for /var/www/1366716627/htdocs/shop/wp-content/updraft/backup_2016-06-25-1742_Marlino_Shop_f04f523702d8-plugins.zip.tmp (line 1906, wp-content/plugins/updraftplus/backup.php)
303779.268 (0) The time we have been running (303779.3) is approaching the resumption interval (300210) - increasing resumption interval to 303810
303779.295 (0) Adding batch to zip file (UpdraftPlus_BinZip): over 25 Mb added on this batch (29 Mb, 4669 files batched, 1 (148) added so far); re-opening (prior size: 0 Kb)
307378.065 (0) PHP event: code E_WARNING: filesize(): stat failed for /var/www/1366716627/htdocs/shop/wp-content/updraft/backup_2016-06-25-1742_Marlino_Shop_f04f523702d8-plugins.zip.tmp (line 1906, wp-content/plugins/updraftplus/backup.php)
307378.172 (0) The time we have been running (307378.2) is approaching the resumption interval (303810) - increasing resumption interval to 307409
307378.274 (0) Adding batch to zip file (UpdraftPlus_BinZip): over 25 Mb added on this batch (29 Mb, 4669 files batched, 1 (149) added so far); re-opening (prior size: 0 Kb)
324012.798 (0) PHP event: code E_WARNING: filesize(): stat failed for /var/www/1366716627/htdocs/shop/wp-content/updraft/backup_2016-06-25-1742_Marlino_Shop_f04f523702d8-plugins.zip.tmp (line 1906, wp-content/plugins/updraftplus/backup.php)
324016.455 (0) The time we have been running (324016.3) is approaching the resumption interval (307409) - increasing resumption interval to 324047
324016.605 (0) Adding batch to zip file (UpdraftPlus_BinZip): over 25 Mb added on this batch (29 Mb, 4669 files batched, 1 (150) added so far); re-opening (prior size: 0 Kb)
324103.487 (0) PHP event: code E_WARNING: filesize(): stat failed for /var/www/1366716627/htdocs/shop/wp-content/updraft/backup_2016-06-25-1742_Marlino_Shop_f04f523702d8-plugins.zip.tmp (line 1906, wp-content/plugins/updraftplus/backup.php)
324103.655 (0) The time we have been running (324103.6) is approaching the resumption interval (324047) - increasing resumption interval to 324134
324103.670 (0) Adding batch to zip file (UpdraftPlus_BinZip): over 25 Mb added on this batch (29 Mb, 4669 files batched, 1 (151) added so far); re-opening (prior size: 0 Kb)
324114.882 (0) PHP event: code E_WARNING: filesize(): stat failed for /var/www/1366716627/htdocs/shop/wp-content/updraft/backup_2016-06-25-1742_Marlino_Shop_f04f523702d8-plugins.zip.tmp (line 1906, wp-content/plugins/updraftplus/backup.php)
324117.203 (0) The time we have been running (324117.2) is approaching the resumption interval (324134) - increasing resumption interval to 324148
324117.213 (0) Adding batch to zip file (UpdraftPlus_BinZip): over 25 Mb added on this batch (29 Mb, 4669 files batched, 1 (152) added so far); re-opening (prior size: 0 Kb)
386579.735 (0) PHP event: code E_WARNING: filesize(): stat failed for /var/www/1366716627/htdocs/shop/wp-content/updraft/backup_2016-06-25-1742_Marlino_Shop_f04f523702d8-plugins.zip.tmp (line 1906, wp-content/plugins/updraftplus/backup.php)
386579.952 (0) The time we have been running (386579.9) is approaching the resumption interval (324148) - increasing resumption interval to 386610
386579.971 (0) Adding batch to zip file (UpdraftPlus_BinZip): over 25 Mb added on this batch (29 Mb, 4669 files batched, 1 (153) added so far); re-opening (prior size: 0 Kb)
390179.076 (0) PHP event: code E_WARNING: filesize(): stat failed for /var/www/1366716627/htdocs/shop/wp-content/updraft/backup_2016-06-25-1742_Marlino_Shop_f04f523702d8-plugins.zip.tmp (line 1906, wp-content/plugins/updraftplus/backup.php)
390179.229 (0) The time we have been running (390179.2) is approaching the resumption interval (386610) - increasing resumption interval to 390210
390179.268 (0) Adding batch to zip file (UpdraftPlus_BinZip): over 25 Mb added on this batch (29 Mb, 4669 files batched, 1 (154) added so far); re-opening (prior size: 0 Kb)
393778.457 (0) PHP event: code E_WARNING: filesize(): stat failed for /var/www/1366716627/htdocs/shop/wp-content/updraft/backup_2016-06-25-1742_Marlino_Shop_f04f523702d8-plugins.zip.tmp (line 1906, wp-content/plugins/updraftplus/backup.php)
393778.533 (0) The time we have been running (393778.5) is approaching the resumption interval (390210) - increasing resumption interval to 393809
393778.604 (0) Adding batch to zip file (UpdraftPlus_BinZip): over 25 Mb added on this batch (29 Mb, 4669 files batched, 1 (155) added so far); re-opening (prior size: 0 Kb)
427997.628 (0) PHP event: code E_WARNING: filesize(): stat failed for /var/www/1366716627/htdocs/shop/wp-content/updraft/backup_2016-06-25-1742_Marlino_Shop_f04f523702d8-plugins.zip.tmp (line 1906, wp-content/plugins/updraftplus/backup.php)
427997.834 (0) The time we have been running (427997.8) is approaching the resumption interval (393809) - increasing resumption interval to 428028
427997.869 (0) Adding batch to zip file (UpdraftPlus_BinZip): over 25 Mb added on this batch (29 Mb, 4669 files batched, 1 (156) added so far); re-opening (prior size: 0 Kb)
472979.150 (0) PHP event: code E_WARNING: filesize(): stat failed for /var/www/1366716627/htdocs/shop/wp-content/updraft/backup_2016-06-25-1742_Marlino_Shop_f04f523702d8-plugins.zip.tmp (line 1906, wp-content/plugins/updraftplus/backup.php)
472979.372 (0) The time we have been running (472979.3) is approaching the resumption interval (428028) - increasing resumption interval to 473010
472979.413 (0) Adding batch to zip file (UpdraftPlus_BinZip): over 25 Mb added on this batch (29 Mb, 4669 files batched, 1 (157) added so far); re-opening (prior size: 0 Kb)
476579.540 (0) PHP event: code E_WARNING: filesize(): stat failed for /var/www/1366716627/htdocs/shop/wp-content/updraft/backup_2016-06-25-1742_Marlino_Shop_f04f523702d8-plugins.zip.tmp (line 1906, wp-content/plugins/updraftplus/backup.php)
476579.797 (0) The time we have been running (476579.8) is approaching the resumption interval (473010) - increasing resumption interval to 476610
476579.803 (0) Adding batch to zip file (UpdraftPlus_BinZip): over 25 Mb added on this batch (29 Mb, 4669 files batched, 1 (158) added so far); re-opening (prior size: 0 Kb)
480178.082 (0) PHP event: code E_WARNING: filesize(): stat failed for /var/www/1366716627/htdocs/shop/wp-content/updraft/backup_2016-06-25-1742_Marlino_Shop_f04f523702d8-plugins.zip.tmp (line 1906, wp-content/plugins/updraftplus/backup.php)
480178.216 (0) The time we have been running (480178.2) is approaching the resumption interval (476610) - increasing resumption interval to 480209
480178.259 (0) Adding batch to zip file (UpdraftPlus_BinZip): over 25 Mb added on this batch (29 Mb, 4669 files batched, 1 (159) added so far); re-opening (prior size: 0 Kb)
559379.523 (0) PHP event: code E_WARNING: filesize(): stat failed for /var/www/1366716627/htdocs/shop/wp-content/updraft/backup_2016-06-25-1742_Marlino_Shop_f04f523702d8-plugins.zip.tmp (line 1906, wp-content/plugins/updraftplus/backup.php)
559379.734 (0) The time we have been running (559379.7) is approaching the resumption interval (480209) - increasing resumption interval to 559410
559379.759 (0) Adding batch to zip file (UpdraftPlus_BinZip): over 25 Mb added on this batch (29.1 Mb, 4669 files batched, 1 (160) added so far); re-opening (prior size: 0 Kb)
562979.207 (0) PHP event: code E_WARNING: filesize(): stat failed for /var/www/1366716627/htdocs/shop/wp-content/updraft/backup_2016-06-25-1742_Marlino_Shop_f04f523702d8-plugins.zip.tmp (line 1906, wp-content/plugins/updraftplus/backup.php)
562979.357 (0) The time we have been running (562979.3) is approaching the resumption interval (559410) - increasing resumption interval to 563010
562979.378 (0) Adding batch to zip file (UpdraftPlus_BinZip): over 25 Mb added on this batch (29.1 Mb, 4669 files batched, 1 (161) added so far); re-opening (prior size: 0 Kb)
566577.756 (0) PHP event: code E_WARNING: filesize(): stat failed for /var/www/1366716627/htdocs/shop/wp-content/updraft/backup_2016-06-25-1742_Marlino_Shop_f04f523702d8-plugins.zip.tmp (line 1906, wp-content/plugins/updraftplus/backup.php)
566577.882 (0) The time we have been running (566577.9) is approaching the resumption interval (563010) - increasing resumption interval to 566608
566577.938 (0) Adding batch to zip file (UpdraftPlus_BinZip): over 25 Mb added on this batch (29.1 Mb, 4669 files batched, 1 (162) added so far); re-opening (prior size: 0 Kb)
645778.952 (0) PHP event: code E_WARNING: filesize(): stat failed for /var/www/1366716627/htdocs/shop/wp-content/updraft/backup_2016-06-25-1742_Marlino_Shop_f04f523702d8-plugins.zip.tmp (line 1906, wp-content/plugins/updraftplus/backup.php)
645779.049 (0) The time we have been running (645779) is approaching the resumption interval (566608) - increasing resumption interval to 645810
645779.124 (0) Adding batch to zip file (UpdraftPlus_BinZip): over 25 Mb added on this batch (29.1 Mb, 4669 files batched, 1 (163) added so far); re-opening (prior size: 0 Kb)
649378.107 (0) PHP event: code E_WARNING: filesize(): stat failed for /var/www/1366716627/htdocs/shop/wp-content/updraft/backup_2016-06-25-1742_Marlino_Shop_f04f523702d8-plugins.zip.tmp (line 1906, wp-content/plugins/updraftplus/backup.php)
649378.319 (0) The time we have been running (649378.3) is approaching the resumption interval (645810) - increasing resumption interval to 649409
649378.333 (0) Adding batch to zip file (UpdraftPlus_BinZip): over 25 Mb added on this batch (29.1 Mb, 4669 files batched, 1 (164) added so far); re-opening (prior size: 0 Kb)
652978.034 (0) PHP event: code E_WARNING: filesize(): stat failed for /var/www/1366716627/htdocs/shop/wp-content/updraft/backup_2016-06-25-1742_Marlino_Shop_f04f523702d8-plugins.zip.tmp (line 1906, wp-content/plugins/updraftplus/backup.php)
652978.148 (0) The time we have been running (652978.1) is approaching the resumption interval (649409) - increasing resumption interval to 653009
652978.155 (0) Adding batch to zip file (UpdraftPlus_BinZip): over 25 Mb added on this batch (29.1 Mb, 4669 files batched, 1 (165) added so far); re-opening (prior size: 0 Kb)
732179.079 (0) PHP event: code E_WARNING: filesize(): stat failed for /var/www/1366716627/htdocs/shop/wp-content/updraft/backup_2016-06-25-1742_Marlino_Shop_f04f523702d8-plugins.zip.tmp (line 1906, wp-content/plugins/updraftplus/backup.php)
732179.241 (0) The time we have been running (732179.2) is approaching the resumption interval (653009) - increasing resumption interval to 732210
732179.247 (0) Adding batch to zip file (UpdraftPlus_BinZip): over 25 Mb added on this batch (29.1 Mb, 4669 files batched, 1 (166) added so far); re-opening (prior size: 0 Kb)
735779.554 (0) PHP event: code E_WARNING: filesize(): stat failed for /var/www/1366716627/htdocs/shop/wp-content/updraft/backup_2016-06-25-1742_Marlino_Shop_f04f523702d8-plugins.zip.tmp (line 1906, wp-content/plugins/updraftplus/backup.php)
735779.651 (0) The time we have been running (735779.6) is approaching the resumption interval (732210) - increasing resumption interval to 735810
735779.703 (0) Adding batch to zip file (UpdraftPlus_BinZip): over 25 Mb added on this batch (29.1 Mb, 4669 files batched, 1 (167) added so far); re-opening (prior size: 0 Kb)
739377.347 (0) PHP event: code E_WARNING: filesize(): stat failed for /var/www/1366716627/htdocs/shop/wp-content/updraft/backup_2016-06-25-1742_Marlino_Shop_f04f523702d8-plugins.zip.tmp (line 1906, wp-content/plugins/updraftplus/backup.php)
739377.491 (0) The time we have been running (739377.5) is approaching the resumption interval (735810) - increasing resumption interval to 739408
739377.503 (0) Adding batch to zip file (UpdraftPlus_BinZip): over 25 Mb added on this batch (29.1 Mb, 4669 files batched, 1 (168) added so far); re-opening (prior size: 0 Kb)
818579.255 (0) PHP event: code E_WARNING: filesize(): stat failed for /var/www/1366716627/htdocs/shop/wp-content/updraft/backup_2016-06-25-1742_Marlino_Shop_f04f523702d8-plugins.zip.tmp (line 1906, wp-content/plugins/updraftplus/backup.php)
818579.375 (0) The time we have been running (818579.4) is approaching the resumption interval (739408) - increasing resumption interval to 818610
818579.404 (0) Adding batch to zip file (UpdraftPlus_BinZip): over 25 Mb added on this batch (29.1 Mb, 4669 files batched, 1 (169) added so far); re-opening (prior size: 0 Kb)
822179.166 (0) PHP event: code E_WARNING: filesize(): stat failed for /var/www/1366716627/htdocs/shop/wp-content/updraft/backup_2016-06-25-1742_Marlino_Shop_f04f523702d8-plugins.zip.tmp (line 1906, wp-content/plugins/updraftplus/backup.php)
822179.291 (0) The time we have been running (822179.3) is approaching the resumption interval (818610) - increasing resumption interval to 822210
822179.336 (0) Adding batch to zip file (UpdraftPlus_BinZip): over 25 Mb added on this batch (29.1 Mb, 4669 files batched, 1 (170) added so far); re-opening (prior size: 0 Kb)
825778.276 (0) PHP event: code E_WARNING: filesize(): stat failed for /var/www/1366716627/htdocs/shop/wp-content/updraft/backup_2016-06-25-1742_Marlino_Shop_f04f523702d8-plugins.zip.tmp (line 1906, wp-content/plugins/updraftplus/backup.php)
825778.454 (0) The time we have been running (825778.4) is approaching the resumption interval (822210) - increasing resumption interval to 825809
825778.462 (0) Adding batch to zip file (UpdraftPlus_BinZip): over 25 Mb added on this batch (29.1 Mb, 4669 files batched, 1 (171) added so far); re-opening (prior size: 0 Kb)
904979.889 (0) PHP event: code E_WARNING: filesize(): stat failed for /var/www/1366716627/htdocs/shop/wp-content/updraft/backup_2016-06-25-1742_Marlino_Shop_f04f523702d8-plugins.zip.tmp (line 1906, wp-content/plugins/updraftplus/backup.php)
904979.996 (0) The time we have been running (904980) is approaching the resumption interval (825809) - increasing resumption interval to 905010
904980.031 (0) Adding batch to zip file (UpdraftPlus_BinZip): over 25 Mb added on this batch (29.1 Mb, 4669 files batched, 1 (172) added so far); re-opening (prior size: 0 Kb)
908578.138 (0) PHP event: code E_WARNING: filesize(): stat failed for /var/www/1366716627/htdocs/shop/wp-content/updraft/backup_2016-06-25-1742_Marlino_Shop_f04f523702d8-plugins.zip.tmp (line 1906, wp-content/plugins/updraftplus/backup.php)
908578.344 (0) The time we have been running (908578.3) is approaching the resumption interval (905010) - increasing resumption interval to 908609
908578.372 (0) Adding batch to zip file (UpdraftPlus_BinZip): over 25 Mb added on this batch (29.1 Mb, 4669 files batched, 1 (173) added so far); re-opening (prior size: 0 Kb)
912177.405 (0) PHP event: code E_WARNING: filesize(): stat failed for /var/www/1366716627/htdocs/shop/wp-content/updraft/backup_2016-06-25-1742_Marlino_Shop_f04f523702d8-plugins.zip.tmp (line 1906, wp-content/plugins/updraftplus/backup.php)
912178.879 (0) The time we have been running (912178.9) is approaching the resumption interval (908609) - increasing resumption interval to 912209
912178.930 (0) Adding batch to zip file (UpdraftPlus_BinZip): over 25 Mb added on this batch (29.1 Mb, 4669 files batched, 1 (174) added so far); re-opening (prior size: 0 Kb)
974928.880 (0) PHP event: code E_WARNING: filesize(): stat failed for /var/www/1366716627/htdocs/shop/wp-content/updraft/backup_2016-06-25-1742_Marlino_Shop_f04f523702d8-plugins.zip.tmp (line 1906, wp-content/plugins/updraftplus/backup.php)
974929.224 (0) The time we have been running (974929.2) is approaching the resumption interval (912209) - increasing resumption interval to 974960
974929.239 (0) Adding batch to zip file (UpdraftPlus_BinZip): over 25 Mb added on this batch (29.1 Mb, 4669 files batched, 1 (175) added so far); re-opening (prior size: 0 Kb)
991379.179 (0) PHP event: code E_WARNING: filesize(): stat failed for /var/www/1366716627/htdocs/shop/wp-content/updraft/backup_2016-06-25-1742_Marlino_Shop_f04f523702d8-plugins.zip.tmp (line 1906, wp-content/plugins/updraftplus/backup.php)
991380.509 (0) The time we have been running (991379.3) is approaching the resumption interval (974960) - increasing resumption interval to 991410
991380.545 (0) Adding batch to zip file (UpdraftPlus_BinZip): over 25 Mb added on this batch (29.1 Mb, 4669 files batched, 1 (176) added so far); re-opening (prior size: 0 Kb)
994979.234 (0) PHP event: code E_WARNING: filesize(): stat failed for /var/www/1366716627/htdocs/shop/wp-content/updraft/backup_2016-06-25-1742_Marlino_Shop_f04f523702d8-plugins.zip.tmp (line 1906, wp-content/plugins/updraftplus/backup.php)
994979.500 (0) The time we have been running (994979.4) is approaching the resumption interval (991410) - increasing resumption interval to 995010
994979.530 (0) Adding batch to zip file (UpdraftPlus_BinZip): over 25 Mb added on this batch (29.1 Mb, 4669 files batched, 1 (177) added so far); re-opening (prior size: 0 Kb)
998577.622 (0) PHP event: code E_WARNING: filesize(): stat failed for /var/www/1366716627/htdocs/shop/wp-content/updraft/backup_2016-06-25-1742_Marlino_Shop_f04f523702d8-plugins.zip.tmp (line 1906, wp-content/plugins/updraftplus/backup.php)
998577.765 (0) The time we have been running (998577.8) is approaching the resumption interval (995010) - increasing resumption interval to 998608
998577.772 (0) Adding batch to zip file (UpdraftPlus_BinZip): over 25 Mb added on this batch (29.1 Mb, 4669 files batched, 1 (178) added so far); re-opening (prior size: 0 Kb)
1077780.154 (0) PHP event: code E_WARNING: filesize(): stat failed for /var/www/1366716627/htdocs/shop/wp-content/updraft/backup_2016-06-25-1742_Marlino_Shop_f04f523702d8-plugins.zip.tmp (line 1906, wp-content/plugins/updraftplus/backup.php)
1077780.466 (0) The time we have been running (1077780.4) is approaching the resumption interval (998608) - increasing resumption interval to 1077811
1077780.564 (0) Adding batch to zip file (UpdraftPlus_BinZip): over 25 Mb added on this batch (29.1 Mb, 4669 files batched, 1 (179) added so far); re-opening (prior size: 0 Kb)
1081377.889 (0) PHP event: code E_WARNING: filesize(): stat failed for /var/www/1366716627/htdocs/shop/wp-content/updraft/backup_2016-06-25-1742_Marlino_Shop_f04f523702d8-plugins.zip.tmp (line 1906, wp-content/plugins/updraftplus/backup.php)
1081378.325 (0) The time we have been running (1081378.3) is approaching the resumption interval (1077811) - increasing resumption interval to 1081409
1081378.368 (0) Adding batch to zip file (UpdraftPlus_BinZip): over 25 Mb added on this batch (29.1 Mb, 4669 files batched, 1 (180) added so far); re-opening (prior size: 0 Kb)
1084978.274 (0) PHP event: code E_WARNING: filesize(): stat failed for /var/www/1366716627/htdocs/shop/wp-content/updraft/backup_2016-06-25-1742_Marlino_Shop_f04f523702d8-plugins.zip.tmp (line 1906, wp-content/plugins/updraftplus/backup.php)
1084978.378 (0) The time we have been running (1084978.4) is approaching the resumption interval (1081409) - increasing resumption interval to 1085009
1084978.405 (0) Adding batch to zip file (UpdraftPlus_BinZip): over 25 Mb added on this batch (29.1 Mb, 4669 files batched, 1 (181) added so far); re-opening (prior size: 0 Kb)
1109418.062 (0) PHP event: code E_WARNING: filesize(): stat failed for /var/www/1366716627/htdocs/shop/wp-content/updraft/backup_2016-06-25-1742_Marlino_Shop_f04f523702d8-plugins.zip.tmp (line 1906, wp-content/plugins/updraftplus/backup.php)
1109418.184 (0) The time we have been running (1109418.2) is approaching the resumption interval (1085009) - increasing resumption interval to 1109449
1109418.210 (0) Adding batch to zip file (UpdraftPlus_BinZip): over 25 Mb added on this batch (29.1 Mb, 4669 files batched, 1 (182) added so far); re-opening (prior size: 0 Kb)
1164179.656 (0) PHP event: code E_WARNING: filesize(): stat failed for /var/www/1366716627/htdocs/shop/wp-content/updraft/backup_2016-06-25-1742_Marlino_Shop_f04f523702d8-plugins.zip.tmp (line 1906, wp-content/plugins/updraftplus/backup.php)
1164180.355 (0) The time we have been running (1164180.3) is approaching the resumption interval (1109449) - increasing resumption interval to 1164211
1164180.394 (0) Adding batch to zip file (UpdraftPlus_BinZip): over 25 Mb added on this batch (29.1 Mb, 4669 files batched, 1 (183) added so far); re-opening (prior size: 0 Kb)
1167779.063 (0) PHP event: code E_WARNING: filesize(): stat failed for /var/www/1366716627/htdocs/shop/wp-content/updraft/backup_2016-06-25-1742_Marlino_Shop_f04f523702d8-plugins.zip.tmp (line 1906, wp-content/plugins/updraftplus/backup.php)
1167779.500 (0) The time we have been running (1167779.4) is approaching the resumption interval (1164211) - increasing resumption interval to 1167810
1167779.506 (0) Adding batch to zip file (UpdraftPlus_BinZip): over 25 Mb added on this batch (29.1 Mb, 4669 files batched, 1 (184) added so far); re-opening (prior size: 0 Kb)
1171377.673 (0) PHP event: code E_WARNING: filesize(): stat failed for /var/www/1366716627/htdocs/shop/wp-content/updraft/backup_2016-06-25-1742_Marlino_Shop_f04f523702d8-plugins.zip.tmp (line 1906, wp-content/plugins/updraftplus/backup.php)
1171377.808 (0) The time we have been running (1171377.8) is approaching the resumption interval (1167810) - increasing resumption interval to 1171408
1171377.818 (0) Adding batch to zip file (UpdraftPlus_BinZip): over 25 Mb added on this batch (29.1 Mb, 4669 files batched, 1 (185) added so far); re-opening (prior size: 0 Kb)
1250578.886 (0) PHP event: code E_WARNING: filesize(): stat failed for /var/www/1366716627/htdocs/shop/wp-content/updraft/backup_2016-06-25-1742_Marlino_Shop_f04f523702d8-plugins.zip.tmp (line 1906, wp-content/plugins/updraftplus/backup.php)
1250579.009 (0) The time we have been running (1250579) is approaching the resumption interval (1171408) - increasing resumption interval to 1250609
1250579.038 (0) Adding batch to zip file (UpdraftPlus_BinZip): over 25 Mb added on this batch (29.1 Mb, 4669 files batched, 1 (186) added so far); re-opening (prior size: 0 Kb)
1254179.352 (0) PHP event: code E_WARNING: filesize(): stat failed for /var/www/1366716627/htdocs/shop/wp-content/updraft/backup_2016-06-25-1742_Marlino_Shop_f04f523702d8-plugins.zip.tmp (line 1906, wp-content/plugins/updraftplus/backup.php)
1254179.486 (0) The time we have been running (1254179.4) is approaching the resumption interval (1250609) - increasing resumption interval to 1254210
1254179.555 (0) Adding batch to zip file (UpdraftPlus_BinZip): over 25 Mb added on this batch (29.1 Mb, 4669 files batched, 1 (187) added so far); re-opening (prior size: 0 Kb)
1257778.035 (0) PHP event: code E_WARNING: filesize(): stat failed for /var/www/1366716627/htdocs/shop/wp-content/updraft/backup_2016-06-25-1742_Marlino_Shop_f04f523702d8-plugins.zip.tmp (line 1906, wp-content/plugins/updraftplus/backup.php)
1257778.199 (0) The time we have been running (1257778.1) is approaching the resumption interval (1254210) - increasing resumption interval to 1257809
1257778.207 (0) Adding batch to zip file (UpdraftPlus_BinZip): over 25 Mb added on this batch (29.1 Mb, 4669 files batched, 1 (188) added so far); re-opening (prior size: 0 Kb)
1336979.606 (0) PHP event: code E_WARNING: filesize(): stat failed for /var/www/1366716627/htdocs/shop/wp-content/updraft/backup_2016-06-25-1742_Marlino_Shop_f04f523702d8-plugins.zip.tmp (line 1906, wp-content/plugins/updraftplus/backup.php)
1336979.673 (0) The time we have been running (1336979.7) is approaching the resumption interval (1257809) - increasing resumption interval to 1337010
1336979.763 (0) Adding batch to zip file (UpdraftPlus_BinZip): over 25 Mb added on this batch (29.1 Mb, 4669 files batched, 1 (189) added so far); re-opening (prior size: 0 Kb)
1340578.059 (0) PHP event: code E_WARNING: filesize(): stat failed for /var/www/1366716627/htdocs/shop/wp-content/updraft/backup_2016-06-25-1742_Marlino_Shop_f04f523702d8-plugins.zip.tmp (line 1906, wp-content/plugins/updraftplus/backup.php)
1340578.196 (0) The time we have been running (1340578.2) is approaching the resumption interval (1337010) - increasing resumption interval to 1340609
1340578.203 (0) Adding batch to zip file (UpdraftPlus_BinZip): over 25 Mb added on this batch (29.2 Mb, 4669 files batched, 1 (190) added so far); re-opening (prior size: 0 Kb)
1344178.044 (0) PHP event: code E_WARNING: filesize(): stat failed for /var/www/1366716627/htdocs/shop/wp-content/updraft/backup_2016-06-25-1742_Marlino_Shop_f04f523702d8-plugins.zip.tmp (line 1906, wp-content/plugins/updraftplus/backup.php)
1344178.162 (0) The time we have been running (1344178.1) is approaching the resumption interval (1340609) - increasing resumption interval to 1344209
1344178.190 (0) Adding batch to zip file (UpdraftPlus_BinZip): over 25 Mb added on this batch (29.2 Mb, 4669 files batched, 1 (191) added so far); re-opening (prior size: 0 Kb)
