0000.002 (0) Opened log file at time: Mon, 05 Oct 2015 19:29:22 +0000 on http://www.marlino.de/shop
0000.015 (0) UpdraftPlus WordPress backup plugin (http://updraftplus.com): 1.9.19 WP: 3.9.9 PHP: 5.6.9-0+deb8u1 (Linux sweb2a 3.16.0-4-amd64 #1 SMP Debian 3.16.7-ckt11-1+deb8u3 (2015-08-04) x86_64) MySQL: 5.5.37-0+wheezy1-log Server: Apache/2.4.10 (Debian) safe_mode: 0 max_execution_time: 900 memory_limit: 256M (used: 47.1M | 48M) multisite: N mcrypt: Y LANG: C ZipArchive::addFile: Y
0000.017 (0) Free space on disk containing Updraft's temporary directory: 171616.7 Mb
0000.052 (0) Deleting old temporary file: backup_2015-10-04-1805_Marlino_Shop_07ee373819b6-plugins.zip.tmp
0000.057 (0) Deleting old temporary file: backup_2015-10-03-1937_Marlino_Shop_1f2d6fff01b9-plugins.zip.tmp
0000.075 (0) Tasks: Backup files:  (schedule: daily) Backup DB: 1 (schedule: daily)
0000.076 (0) Processed schedules. Tasks now: Backup files:  Backup DB: 
0000.079 (0) The backup apparently succeeded and is now complete
0000.080 (0) No email will be sent - this backup set was empty.
0000.082 (0) Die Sicherung war anscheinend erfolgreich und ist nun vollständig
