0000.018 (0) Opened log file at time: Wed, 22 Jun 2016 15:55:28 +0000 on http://www.marlino.de/shop
0000.034 (0) UpdraftPlus WordPress backup plugin (http://updraftplus.com): 1.9.19 WP: 4.3.5 PHP: 5.6.17-0+deb8u1 (Linux sweb2a 3.16.0-4-amd64 #1 SMP Debian 3.16.7-ckt20-1+deb8u3 (2016-01-17) x86_64) MySQL: 5.5.37-0+wheezy1-log Server: Apache/2.4.10 (Debian) safe_mode: 0 max_execution_time: 900 memory_limit: 512M (used: 52.2M | 53M) multisite: N mcrypt: Y LANG: C ZipArchive::addFile: Y
0000.049 (0) Free space on disk containing Updraft's temporary directory: 121811.3 Mb
0000.167 (0) Deleting old temporary file: backup_2016-06-20-1746_Marlino_Shop_f9f01fce0ac9-plugins.zip.tmp
0000.197 (0) Tasks: Backup files: 1 (schedule: daily) Backup DB:  (schedule: daily)
0000.199 (0) Processed schedules. Tasks now: Backup files: 1 Backup DB: 1
0000.207 (0) Requesting semaphore lock (fd)
0000.211 (0) Semaphore (fd) was stuck, set lock time to 2016-06-22 15:55:29
0000.214 (0) Semaphore (fd) reset to 1
0000.216 (0) Set semaphore last lock (fd) time to 2016-06-22 15:55:29
0000.217 (0) Semaphore lock (fd) complete
0000.226 (0) Backup run: resumption=0, nonce=4290dc14ef2d, begun at=1466610928 (1s ago), job type=backup
0000.229 (0) Scheduling a resumption (1) after 600 seconds (1466611529) in case this run gets aborted
0000.246 (0) Checking if we have a zip executable available
0000.255 (0) Testing: /usr/bin/zip
0000.294 (0) Output: zip warning: binziptest/test.zip not found or empty
0000.302 (0) Output: adding: binziptest/subdir1/	(in=0) (out=0) (stored 0%)
0000.308 (0) Output: adding: binziptest/subdir1/subdir2/	(in=0) (out=0) (stored 0%)
0000.311 (0) Output: adding: binziptest/subdir1/subdir2/test.html	(in=127) (out=105) (deflated 17%)
0000.313 (0) Output: total bytes=127, compressed=105 -> 17% savings
0000.349 (0) Output: adding: binziptest/subdir1/subdir2/test2.html	(in=134) (out=109) (deflated 19%)
0000.351 (0) Output: total bytes=261, compressed=214 -> 18% savings
0000.385 (0) Working binary zip found: /usr/bin/zip
0000.388 (0) Zip engine: found/will use a binary zip: /usr/bin/zip
0000.397 (0) Creation of backups of directories: beginning
0000.414 (0) Beginning creation of dump of plugins (split every: 800 Mb)
0003.977 (0) Total entities for the zip file: 647 directories, 4669 files (0 skipped as non-modified), 162.2 Mb
0003.983 (0) Adding batch to zip file (UpdraftPlus_BinZip): over 2.0 seconds have passed since the last write (0 Mb, 1 (1) files added so far); re-opening (prior size: 0 Kb)
0000.000 (1) Opened log file at time: Wed, 22 Jun 2016 17:29:38 +0000 on http://www.marlino.de/shop
0000.009 (1) UpdraftPlus WordPress backup plugin (http://updraftplus.com): 1.9.19 WP: 4.3.5 PHP: 5.6.17-0+deb8u1 (Linux sweb2a 3.16.0-4-amd64 #1 SMP Debian 3.16.7-ckt20-1+deb8u3 (2016-01-17) x86_64) MySQL: 5.5.37-0+wheezy1-log Server: Apache/2.4.10 (Debian) safe_mode: 0 max_execution_time: 900 memory_limit: 512M (used: 46.7M | 47.8M) multisite: N mcrypt: Y LANG: C ZipArchive::addFile: Y
0000.019 (1) Free space on disk containing Updraft's temporary directory: 121754.1 Mb
0000.023 (1) This backup task began over 2 days ago: aborting (1466616578.4424, )
43955.571 (0) The time we have been running (43955.5) is approaching the resumption interval (600) - increasing resumption interval to 43986
43955.667 (0) Zip: backup_2016-06-22-1755_Marlino_Shop_4290dc14ef2d-plugins.zip.tmp: 100 files added (on-disk size: 137.3 Kb)
43955.695 (0) Adding batch to zip file (UpdraftPlus_BinZip): over 25 Mb added on this batch (25.4 Mb, 4669 files batched, 129 (130) added so far); re-opening (prior size: 137.3 Kb)
44496.727 (0) The time we have been running (44496.7) is approaching the resumption interval (43986) - increasing resumption interval to 44527
44496.735 (0) Adding batch to zip file (UpdraftPlus_BinZip): over 25 Mb added on this batch (25.7 Mb, 4669 files batched, 1 (131) added so far); re-opening (prior size: 137.3 Kb)
44687.513 (0) The time we have been running (44687.5) is approaching the resumption interval (44527) - increasing resumption interval to 44718
44687.518 (0) Adding batch to zip file (UpdraftPlus_BinZip): over 25 Mb added on this batch (26.3 Mb, 4669 files batched, 1 (132) added so far); re-opening (prior size: 137.3 Kb)
44715.513 (0) The time we have been running (44715.5) is approaching the resumption interval (44718) - increasing resumption interval to 44746
44715.539 (0) Adding batch to zip file (UpdraftPlus_BinZip): over 25 Mb added on this batch (26.6 Mb, 4669 files batched, 1 (133) added so far); re-opening (prior size: 137.3 Kb)
47554.114 (0) The time we have been running (47554.1) is approaching the resumption interval (44746) - increasing resumption interval to 47585
47554.124 (0) Adding batch to zip file (UpdraftPlus_BinZip): over 25 Mb added on this batch (26.6 Mb, 4669 files batched, 1 (134) added so far); re-opening (prior size: 137.3 Kb)
51154.423 (0) The time we have been running (51154.3) is approaching the resumption interval (47585) - increasing resumption interval to 51185
51154.432 (0) Adding batch to zip file (UpdraftPlus_BinZip): over 25 Mb added on this batch (26.9 Mb, 4669 files batched, 1 (135) added so far); re-opening (prior size: 137.3 Kb)
