0000.003 (0) Opened log file at time: Wed, 25 Nov 2015 15:46:35 +0000 on http://www.marlino.de/shop
0000.020 (0) UpdraftPlus WordPress backup plugin (http://updraftplus.com): 1.9.19 WP: 4.3.1 PHP: 5.6.9-0+deb8u1 (Linux sweb2a 3.16.0-4-amd64 #1 SMP Debian 3.16.7-ckt11-1+deb8u3 (2015-08-04) x86_64) MySQL: 5.5.37-0+wheezy1-log Server: Apache/2.4.10 (Debian) safe_mode: 0 max_execution_time: 900 memory_limit: 512M (used: 46.4M | 47.8M) multisite: N mcrypt: Y LANG: C ZipArchive::addFile: Y
0000.022 (0) Free space on disk containing Updraft's temporary directory: 150650.2 Mb
0000.055 (0) Tasks: Backup files:  (schedule: daily) Backup DB: 1 (schedule: daily)
0000.061 (0) Processed schedules. Tasks now: Backup files:  Backup DB: 
0000.074 (0) The backup apparently succeeded and is now complete
0000.075 (0) No email will be sent - this backup set was empty.
0000.077 (0) Die Sicherung war anscheinend erfolgreich und ist nun vollständig
