0000.012 (0) Opened log file at time: Mon, 23 Nov 2015 15:39:52 +0000 on http://www.marlino.de/shop
0000.025 (0) UpdraftPlus WordPress backup plugin (http://updraftplus.com): 1.9.19 WP: 4.3.1 PHP: 5.6.9-0+deb8u1 (Linux sweb2a 3.16.0-4-amd64 #1 SMP Debian 3.16.7-ckt11-1+deb8u3 (2015-08-04) x86_64) MySQL: 5.5.37-0+wheezy1-log Server: Apache/2.4.10 (Debian) safe_mode: 0 max_execution_time: 900 memory_limit: 512M (used: 44.7M | 46M) multisite: N mcrypt: Y LANG: C ZipArchive::addFile: Y
0000.028 (0) Free space on disk containing Updraft's temporary directory: 151901.1 Mb
0000.107 (0) Tasks: Backup files: 1 (schedule: daily) Backup DB:  (schedule: daily)
0000.110 (0) Processed schedules. Tasks now: Backup files: 1 Backup DB: 1
0000.170 (0) Requesting semaphore lock (fd)
0000.174 (0) Semaphore (fd) was stuck, set lock time to 2015-11-23 15:39:52
0000.178 (0) Semaphore (fd) reset to 1
0000.181 (0) Set semaphore last lock (fd) time to 2015-11-23 15:39:52
0000.182 (0) Semaphore lock (fd) complete
0000.193 (0) Backup run: resumption=0, nonce=383f4ea5f33b, begun at=1448293192 (0s ago), job type=backup
0000.197 (0) Scheduling a resumption (1) after 600 seconds (1448293792) in case this run gets aborted
0000.234 (0) Checking if we have a zip executable available
0000.238 (0) Testing: /usr/bin/zip
0000.294 (0) Output: zip warning: binziptest/test.zip not found or empty
0000.301 (0) Output: adding: binziptest/subdir1/	(in=0) (out=0) (stored 0%)
0000.303 (0) Output: adding: binziptest/subdir1/subdir2/	(in=0) (out=0) (stored 0%)
0000.305 (0) Output: adding: binziptest/subdir1/subdir2/test.html	(in=127) (out=105) (deflated 17%)
0000.306 (0) Output: total bytes=127, compressed=105 -> 17% savings
0000.351 (0) Output: adding: binziptest/subdir1/subdir2/test2.html	(in=134) (out=109) (deflated 19%)
0000.354 (0) Output: total bytes=261, compressed=214 -> 18% savings
0000.385 (0) Working binary zip found: /usr/bin/zip
0000.389 (0) Zip engine: found/will use a binary zip: /usr/bin/zip
0000.391 (0) Creation of backups of directories: beginning
0000.402 (0) Beginning creation of dump of plugins (split every: 800 Mb)
0000.422 (0) Deleting old temporary file: ziDyKRf3
0000.425 (0) Deleting old temporary file: zih156q3
0003.604 (0) Total entities for the zip file: 647 directories, 4668 files (0 skipped as non-modified), 162.1 Mb
0003.623 (0) Adding batch to zip file (UpdraftPlus_BinZip): over 2.0 seconds have passed since the last write (0 Mb, 1 (1) files added so far); re-opening (prior size: 0 Kb)
0000.000 (1) Opened log file at time: Mon, 23 Nov 2015 15:53:34 +0000 on http://www.marlino.de/shop
0000.015 (1) UpdraftPlus WordPress backup plugin (http://updraftplus.com): 1.9.19 WP: 4.3.1 PHP: 5.6.9-0+deb8u1 (Linux sweb2a 3.16.0-4-amd64 #1 SMP Debian 3.16.7-ckt11-1+deb8u3 (2015-08-04) x86_64) MySQL: 5.5.37-0+wheezy1-log Server: Apache/2.4.10 (Debian) safe_mode: 0 max_execution_time: 900 memory_limit: 512M (used: 44.1M | 44.8M) multisite: N mcrypt: Y LANG: C ZipArchive::addFile: Y
0000.024 (1) Free space on disk containing Updraft's temporary directory: 151888.3 Mb
0000.028 (1) This backup task began over 2 days ago: aborting (1448294014.7109, )
5952.654 (0) The time we have been running (5952.6) is approaching the resumption interval (600) - increasing resumption interval to 5983
5952.718 (0) Zip: backup_2015-11-23-1739_Marlino_Shop_383f4ea5f33b-plugins.zip.tmp: 100 files added (on-disk size: 137.3 Kb)
5952.736 (0) Adding batch to zip file (UpdraftPlus_BinZip): over 25 Mb added on this batch (25.4 Mb, 4668 files batched, 129 (130) added so far); re-opening (prior size: 137.3 Kb)
48491.227 (0) The time we have been running (48491.2) is approaching the resumption interval (5983) - increasing resumption interval to 48522
48491.235 (0) Adding batch to zip file (UpdraftPlus_BinZip): over 25 Mb added on this batch (25.7 Mb, 4668 files batched, 1 (131) added so far); re-opening (prior size: 137.3 Kb)
48880.590 (0) The time we have been running (48880.5) is approaching the resumption interval (48522) - increasing resumption interval to 48911
48880.601 (0) Adding batch to zip file (UpdraftPlus_BinZip): over 25 Mb added on this batch (26.3 Mb, 4668 files batched, 1 (132) added so far); re-opening (prior size: 137.3 Kb)
49071.918 (0) The time we have been running (49071.9) is approaching the resumption interval (48911) - increasing resumption interval to 49102
49071.952 (0) Adding batch to zip file (UpdraftPlus_BinZip): over 25 Mb added on this batch (26.6 Mb, 4668 files batched, 1 (133) added so far); re-opening (prior size: 137.3 Kb)
49104.709 (0) The time we have been running (49104.7) is approaching the resumption interval (49102) - increasing resumption interval to 49135
49106.124 (0) Adding batch to zip file (UpdraftPlus_BinZip): over 25 Mb added on this batch (26.6 Mb, 4668 files batched, 1 (134) added so far); re-opening (prior size: 137.3 Kb)
52091.903 (0) The time we have been running (52091.7) is approaching the resumption interval (49135) - increasing resumption interval to 52122
52091.924 (0) Adding batch to zip file (UpdraftPlus_BinZip): over 25 Mb added on this batch (26.9 Mb, 4668 files batched, 1 (135) added so far); re-opening (prior size: 137.3 Kb)
55691.489 (0) The time we have been running (55691.1) is approaching the resumption interval (52122) - increasing resumption interval to 55722
55691.499 (0) Adding batch to zip file (UpdraftPlus_BinZip): over 25 Mb added on this batch (27.2 Mb, 4668 files batched, 1 (136) added so far); re-opening (prior size: 137.3 Kb)
70303.497 (0) The time we have been running (70303.3) is approaching the resumption interval (55722) - increasing resumption interval to 70334
70303.513 (0) Adding batch to zip file (UpdraftPlus_BinZip): over 25 Mb added on this batch (27.3 Mb, 4668 files batched, 1 (137) added so far); re-opening (prior size: 137.3 Kb)
134894.590 (0) The time we have been running (134894.6) is approaching the resumption interval (70334) - increasing resumption interval to 134925
134894.601 (0) Adding batch to zip file (UpdraftPlus_BinZip): over 25 Mb added on this batch (27.5 Mb, 4668 files batched, 1 (138) added so far); re-opening (prior size: 137.3 Kb)
135294.294 (0) The time we have been running (135294.3) is approaching the resumption interval (134925) - increasing resumption interval to 135325
135294.329 (0) Adding batch to zip file (UpdraftPlus_BinZip): over 25 Mb added on this batch (27.5 Mb, 4668 files batched, 1 (139) added so far); re-opening (prior size: 137.3 Kb)
135486.426 (0) The time we have been running (135486.4) is approaching the resumption interval (135325) - increasing resumption interval to 135517
135486.489 (0) Adding batch to zip file (UpdraftPlus_BinZip): over 25 Mb added on this batch (27.7 Mb, 4668 files batched, 1 (140) added so far); re-opening (prior size: 137.3 Kb)
135518.678 (0) The time we have been running (135518.7) is approaching the resumption interval (135517) - increasing resumption interval to 135549
135518.817 (0) Adding batch to zip file (UpdraftPlus_BinZip): over 25 Mb added on this batch (27.9 Mb, 4668 files batched, 1 (141) added so far); re-opening (prior size: 137.3 Kb)
138491.678 (0) The time we have been running (138491.6) is approaching the resumption interval (135549) - increasing resumption interval to 138522
138491.709 (0) Adding batch to zip file (UpdraftPlus_BinZip): over 25 Mb added on this batch (28.1 Mb, 4668 files batched, 1 (142) added so far); re-opening (prior size: 137.3 Kb)
142091.150 (0) The time we have been running (142091.1) is approaching the resumption interval (138522) - increasing resumption interval to 142122
142091.171 (0) Adding batch to zip file (UpdraftPlus_BinZip): over 25 Mb added on this batch (28.4 Mb, 4668 files batched, 1 (143) added so far); re-opening (prior size: 137.3 Kb)
221294.369 (0) The time we have been running (221294.3) is approaching the resumption interval (142122) - increasing resumption interval to 221325
221294.389 (0) Adding batch to zip file (UpdraftPlus_BinZip): over 25 Mb added on this batch (28.4 Mb, 4668 files batched, 1 (144) added so far); re-opening (prior size: 137.3 Kb)
221693.756 (0) The time we have been running (221693.7) is approaching the resumption interval (221325) - increasing resumption interval to 221724
221693.894 (0) Adding batch to zip file (UpdraftPlus_BinZip): over 25 Mb added on this batch (28.5 Mb, 4668 files batched, 1 (145) added so far); re-opening (prior size: 137.3 Kb)
221881.826 (0) The time we have been running (221881.8) is approaching the resumption interval (221724) - increasing resumption interval to 221912
221881.843 (0) Adding batch to zip file (UpdraftPlus_BinZip): over 25 Mb added on this batch (28.7 Mb, 4668 files batched, 1 (146) added so far); re-opening (prior size: 137.3 Kb)
221914.036 (0) The time we have been running (221914) is approaching the resumption interval (221912) - increasing resumption interval to 221945
221914.074 (0) Adding batch to zip file (UpdraftPlus_BinZip): over 25 Mb added on this batch (28.8 Mb, 4668 files batched, 1 (147) added so far); re-opening (prior size: 137.3 Kb)
224891.471 (0) The time we have been running (224891.3) is approaching the resumption interval (221945) - increasing resumption interval to 224922
224891.499 (0) Adding batch to zip file (UpdraftPlus_BinZip): over 25 Mb added on this batch (29 Mb, 4668 files batched, 1 (148) added so far); re-opening (prior size: 137.3 Kb)
228491.976 (0) The time we have been running (228491.9) is approaching the resumption interval (224922) - increasing resumption interval to 228522
228492.005 (0) Adding batch to zip file (UpdraftPlus_BinZip): over 25 Mb added on this batch (29 Mb, 4668 files batched, 1 (149) added so far); re-opening (prior size: 137.3 Kb)
