0000.003 (0) Opened log file at time: Fri, 19 Feb 2016 15:46:06 +0000 on http://www.marlino.de/shop
0000.016 (0) UpdraftPlus WordPress backup plugin (http://updraftplus.com): 1.9.19 WP: 4.3.3 PHP: 5.6.17-0+deb8u1 (Linux sweb2b 3.16.0-4-amd64 #1 SMP Debian 3.16.7-ckt20-1+deb8u3 (2016-01-17) x86_64) MySQL: 5.5.37-0+wheezy1-log Server: Apache/2.4.10 (Debian) safe_mode: 0 max_execution_time: 900 memory_limit: 512M (used: 15.7M | 16.5M) multisite: N mcrypt: Y LANG: C ZipArchive::addFile: Y
0000.018 (0) Free space on disk containing Updraft's temporary directory: 130115.1 Mb
0000.146 (0) Tasks: Backup files: 1 (schedule: daily) Backup DB:  (schedule: daily)
0000.149 (0) Processed schedules. Tasks now: Backup files: 1 Backup DB: 1
0000.156 (0) Requesting semaphore lock (fd)
0000.160 (0) Semaphore (fd) was stuck, set lock time to 2016-02-19 15:46:07
0000.164 (0) Semaphore (fd) reset to 1
0000.167 (0) Set semaphore last lock (fd) time to 2016-02-19 15:46:07
0000.168 (0) Semaphore lock (fd) complete
0000.179 (0) Backup run: resumption=0, nonce=ca8fb3347b5a, begun at=1455896766 (1s ago), job type=backup
0000.182 (0) Scheduling a resumption (1) after 600 seconds (1455897367) in case this run gets aborted
0000.000 (1) Opened log file at time: Fri, 19 Feb 2016 16:17:38 +0000 on http://www.marlino.de/shop
0000.005 (1) UpdraftPlus WordPress backup plugin (http://updraftplus.com): 1.9.19 WP: 4.3.3 PHP: 5.6.17-0+deb8u1 (Linux sweb2b 3.16.0-4-amd64 #1 SMP Debian 3.16.7-ckt20-1+deb8u3 (2016-01-17) x86_64) MySQL: 5.5.37-0+wheezy1-log Server: Apache/2.4.10 (Debian) safe_mode: 0 max_execution_time: 900 memory_limit: 512M (used: 47.1M | 47.8M) multisite: N mcrypt: Y LANG: C ZipArchive::addFile: Y
0000.007 (1) Free space on disk containing Updraft's temporary directory: 130088.1 Mb
0000.009 (1) This backup task began over 2 days ago: aborting (1455898658.9803, )
