0000.005 (0) Opened log file at time: Mon, 22 Feb 2016 15:44:35 +0000 on http://www.marlino.de/shop
0000.018 (0) UpdraftPlus WordPress backup plugin (http://updraftplus.com): 1.9.19 WP: 4.3.3 PHP: 5.6.17-0+deb8u1 (Linux sweb2b 3.16.0-4-amd64 #1 SMP Debian 3.16.7-ckt20-1+deb8u3 (2016-01-17) x86_64) MySQL: 5.5.37-0+wheezy1-log Server: Apache/2.4.10 (Debian) safe_mode: 0 max_execution_time: 900 memory_limit: 512M (used: 16.7M | 17.3M) multisite: N mcrypt: Y LANG: C ZipArchive::addFile: Y
0000.021 (0) Free space on disk containing Updraft's temporary directory: 129292.3 Mb
0000.104 (0) Tasks: Backup files: 1 (schedule: daily) Backup DB:  (schedule: daily)
0000.106 (0) Processed schedules. Tasks now: Backup files: 1 Backup DB: 1
0000.111 (0) Requesting semaphore lock (fd)
0000.117 (0) Semaphore (fd) was stuck, set lock time to 2016-02-22 15:44:35
0000.123 (0) Semaphore (fd) reset to 1
0000.126 (0) Set semaphore last lock (fd) time to 2016-02-22 15:44:35
0000.128 (0) Semaphore lock (fd) complete
0000.143 (0) Backup run: resumption=0, nonce=bcc7c5213c06, begun at=1456155875 (0s ago), job type=backup
0000.147 (0) Scheduling a resumption (1) after 600 seconds (1456156475) in case this run gets aborted
0000.166 (0) Checking if we have a zip executable available
0000.168 (0) Testing: /usr/bin/zip
0000.218 (0) Output: zip warning: binziptest/test.zip not found or empty
0000.221 (0) Output: adding: binziptest/subdir1/	(in=0) (out=0) (stored 0%)
0000.223 (0) Output: adding: binziptest/subdir1/subdir2/	(in=0) (out=0) (stored 0%)
0000.224 (0) Output: adding: binziptest/subdir1/subdir2/test.html	(in=127) (out=105) (deflated 17%)
0000.225 (0) Output: total bytes=127, compressed=105 -> 17% savings
0000.251 (0) Output: adding: binziptest/subdir1/subdir2/test2.html	(in=134) (out=109) (deflated 19%)
0000.255 (0) Output: total bytes=261, compressed=214 -> 18% savings
0000.269 (0) Working binary zip found: /usr/bin/zip
0000.272 (0) Zip engine: found/will use a binary zip: /usr/bin/zip
0000.274 (0) Creation of backups of directories: beginning
0000.281 (0) Beginning creation of dump of plugins (split every: 800 Mb)
0004.712 (0) Total entities for the zip file: 647 directories, 4669 files (0 skipped as non-modified), 162.2 Mb
0004.716 (0) Adding batch to zip file (UpdraftPlus_BinZip): over 2.0 seconds have passed since the last write (0 Mb, 1 (1) files added so far); re-opening (prior size: 0 Kb)
0000.000 (1) Opened log file at time: Mon, 22 Feb 2016 15:55:23 +0000 on http://www.marlino.de/shop
0000.003 (1) UpdraftPlus WordPress backup plugin (http://updraftplus.com): 1.9.19 WP: 4.3.3 PHP: 5.6.17-0+deb8u1 (Linux sweb2b 3.16.0-4-amd64 #1 SMP Debian 3.16.7-ckt20-1+deb8u3 (2016-01-17) x86_64) MySQL: 5.5.37-0+wheezy1-log Server: Apache/2.4.10 (Debian) safe_mode: 0 max_execution_time: 900 memory_limit: 512M (used: 16.7M | 17.3M) multisite: N mcrypt: Y LANG: C ZipArchive::addFile: Y
0000.006 (1) Free space on disk containing Updraft's temporary directory: 129235 Mb
0000.008 (1) This backup task began over 2 days ago: aborting (1456156523.8787, )
6874.428 (0) The time we have been running (6874.4) is approaching the resumption interval (600) - increasing resumption interval to 6905
6874.514 (0) Zip: backup_2016-02-22-1744_Marlino_Shop_bcc7c5213c06-plugins.zip.tmp: 100 files added (on-disk size: 137.3 Kb)
6874.537 (0) Adding batch to zip file (UpdraftPlus_BinZip): over 25 Mb added on this batch (25.4 Mb, 4669 files batched, 129 (130) added so far); re-opening (prior size: 137.3 Kb)
6958.430 (0) The time we have been running (6958.4) is approaching the resumption interval (6905) - increasing resumption interval to 6989
6958.488 (0) Adding batch to zip file (UpdraftPlus_BinZip): over 25 Mb added on this batch (25.7 Mb, 4669 files batched, 1 (131) added so far); re-opening (prior size: 137.3 Kb)
43831.873 (0) The time we have been running (43831.8) is approaching the resumption interval (6989) - increasing resumption interval to 43862
43831.916 (0) Adding batch to zip file (UpdraftPlus_BinZip): over 25 Mb added on this batch (26.3 Mb, 4669 files batched, 1 (132) added so far); re-opening (prior size: 137.3 Kb)
44428.374 (0) The time we have been running (44428.3) is approaching the resumption interval (43862) - increasing resumption interval to 44459
44428.387 (0) Adding batch to zip file (UpdraftPlus_BinZip): over 25 Mb added on this batch (26.6 Mb, 4669 files batched, 1 (133) added so far); re-opening (prior size: 137.3 Kb)
48028.529 (0) The time we have been running (48028.5) is approaching the resumption interval (44459) - increasing resumption interval to 48059
48028.542 (0) Adding batch to zip file (UpdraftPlus_BinZip): over 25 Mb added on this batch (26.6 Mb, 4669 files batched, 1 (134) added so far); re-opening (prior size: 137.3 Kb)
51628.235 (0) The time we have been running (51628.2) is approaching the resumption interval (48059) - increasing resumption interval to 51659
51628.246 (0) Adding batch to zip file (UpdraftPlus_BinZip): over 25 Mb added on this batch (26.9 Mb, 4669 files batched, 1 (135) added so far); re-opening (prior size: 137.3 Kb)
75780.122 (0) The time we have been running (75780.1) is approaching the resumption interval (51659) - increasing resumption interval to 75811
75780.128 (0) Adding batch to zip file (UpdraftPlus_BinZip): over 25 Mb added on this batch (27.2 Mb, 4669 files batched, 1 (136) added so far); re-opening (prior size: 137.3 Kb)
77548.254 (0) The time we have been running (77548.2) is approaching the resumption interval (75811) - increasing resumption interval to 77579
77548.281 (0) Adding batch to zip file (UpdraftPlus_BinZip): over 25 Mb added on this batch (27.3 Mb, 4669 files batched, 1 (137) added so far); re-opening (prior size: 137.3 Kb)
130231.596 (0) The time we have been running (130231.4) is approaching the resumption interval (77579) - increasing resumption interval to 130262
130231.793 (0) Adding batch to zip file (UpdraftPlus_BinZip): over 25 Mb added on this batch (27.5 Mb, 4669 files batched, 1 (138) added so far); re-opening (prior size: 137.3 Kb)
130829.003 (0) The time we have been running (130828.9) is approaching the resumption interval (130262) - increasing resumption interval to 130859
130829.011 (0) Adding batch to zip file (UpdraftPlus_BinZip): over 25 Mb added on this batch (27.5 Mb, 4669 files batched, 1 (139) added so far); re-opening (prior size: 137.3 Kb)
134430.052 (0) The time we have been running (134430) is approaching the resumption interval (130859) - increasing resumption interval to 134460
134430.065 (0) Adding batch to zip file (UpdraftPlus_BinZip): over 25 Mb added on this batch (27.7 Mb, 4669 files batched, 1 (140) added so far); re-opening (prior size: 137.3 Kb)
138028.763 (0) The time we have been running (138028.5) is approaching the resumption interval (134460) - increasing resumption interval to 138059
138028.781 (0) Adding batch to zip file (UpdraftPlus_BinZip): over 25 Mb added on this batch (27.9 Mb, 4669 files batched, 1 (141) added so far); re-opening (prior size: 137.3 Kb)
146459.403 (0) The time we have been running (146459.2) is approaching the resumption interval (138059) - increasing resumption interval to 146490
146459.567 (0) Adding batch to zip file (UpdraftPlus_BinZip): over 25 Mb added on this batch (28.1 Mb, 4669 files batched, 1 (142) added so far); re-opening (prior size: 137.3 Kb)
147118.610 (0) The time we have been running (147118.2) is approaching the resumption interval (146490) - increasing resumption interval to 147149
147119.331 (0) Adding batch to zip file (UpdraftPlus_BinZip): over 25 Mb added on this batch (28.4 Mb, 4669 files batched, 1 (143) added so far); re-opening (prior size: 137.3 Kb)
147238.617 (0) The time we have been running (147238.4) is approaching the resumption interval (147149) - increasing resumption interval to 147269
147238.630 (0) Adding batch to zip file (UpdraftPlus_BinZip): over 25 Mb added on this batch (28.4 Mb, 4669 files batched, 1 (144) added so far); re-opening (prior size: 137.3 Kb)
147301.196 (0) The time we have been running (147298.7) is approaching the resumption interval (147269) - increasing resumption interval to 147329
147301.230 (0) Adding batch to zip file (UpdraftPlus_BinZip): over 25 Mb added on this batch (28.5 Mb, 4669 files batched, 1 (145) added so far); re-opening (prior size: 137.3 Kb)
147418.089 (0) The time we have been running (147417.9) is approaching the resumption interval (147329) - increasing resumption interval to 147448
147418.131 (0) Adding batch to zip file (UpdraftPlus_BinZip): over 25 Mb added on this batch (28.7 Mb, 4669 files batched, 1 (146) added so far); re-opening (prior size: 137.3 Kb)
147538.245 (0) The time we have been running (147538.2) is approaching the resumption interval (147448) - increasing resumption interval to 147569
147538.263 (0) Adding batch to zip file (UpdraftPlus_BinZip): over 25 Mb added on this batch (28.8 Mb, 4669 files batched, 1 (147) added so far); re-opening (prior size: 137.3 Kb)
147567.898 (0) The time we have been running (147567.8) is approaching the resumption interval (147569) - increasing resumption interval to 147598
147568.065 (0) Adding batch to zip file (UpdraftPlus_BinZip): over 25 Mb added on this batch (29 Mb, 4669 files batched, 1 (148) added so far); re-opening (prior size: 137.3 Kb)
217231.531 (0) The time we have been running (217231.2) is approaching the resumption interval (147598) - increasing resumption interval to 217262
217231.548 (0) Adding batch to zip file (UpdraftPlus_BinZip): over 25 Mb added on this batch (29 Mb, 4669 files batched, 1 (149) added so far); re-opening (prior size: 137.3 Kb)
220828.879 (0) The time we have been running (220828.8) is approaching the resumption interval (217262) - increasing resumption interval to 220859
220828.904 (0) Adding batch to zip file (UpdraftPlus_BinZip): over 25 Mb added on this batch (29 Mb, 4669 files batched, 1 (150) added so far); re-opening (prior size: 137.3 Kb)
224428.756 (0) The time we have been running (224428.5) is approaching the resumption interval (220859) - increasing resumption interval to 224459
224428.780 (0) Adding batch to zip file (UpdraftPlus_BinZip): over 25 Mb added on this batch (29 Mb, 4669 files batched, 1 (151) added so far); re-opening (prior size: 137.3 Kb)
236295.451 (0) The time we have been running (236295.4) is approaching the resumption interval (224459) - increasing resumption interval to 236326
236295.462 (0) Adding batch to zip file (UpdraftPlus_BinZip): over 25 Mb added on this batch (29 Mb, 4669 files batched, 1 (152) added so far); re-opening (prior size: 137.3 Kb)
303630.436 (0) The time we have been running (303630.3) is approaching the resumption interval (236326) - increasing resumption interval to 303661
303630.451 (0) Adding batch to zip file (UpdraftPlus_BinZip): over 25 Mb added on this batch (29 Mb, 4669 files batched, 1 (153) added so far); re-opening (prior size: 137.3 Kb)
307229.728 (0) The time we have been running (307229.7) is approaching the resumption interval (303661) - increasing resumption interval to 307260
307229.758 (0) Adding batch to zip file (UpdraftPlus_BinZip): over 25 Mb added on this batch (29 Mb, 4669 files batched, 1 (154) added so far); re-opening (prior size: 137.3 Kb)
310828.162 (0) The time we have been running (310828.1) is approaching the resumption interval (307260) - increasing resumption interval to 310859
310828.190 (0) Adding batch to zip file (UpdraftPlus_BinZip): over 25 Mb added on this batch (29 Mb, 4669 files batched, 1 (155) added so far); re-opening (prior size: 137.3 Kb)
335788.687 (0) The time we have been running (335788.7) is approaching the resumption interval (310859) - increasing resumption interval to 335819
335788.711 (0) Adding batch to zip file (UpdraftPlus_BinZip): over 25 Mb added on this batch (29 Mb, 4669 files batched, 1 (156) added so far); re-opening (prior size: 137.3 Kb)
335793.338 (0) The time we have been running (335793.3) is approaching the resumption interval (335819) - increasing resumption interval to 335824
335793.360 (0) Adding batch to zip file (UpdraftPlus_BinZip): over 25 Mb added on this batch (29 Mb, 4669 files batched, 1 (157) added so far); re-opening (prior size: 137.3 Kb)
335997.884 (0) The time we have been running (335997.9) is approaching the resumption interval (335824) - increasing resumption interval to 336028
335997.916 (0) Adding batch to zip file (UpdraftPlus_BinZip): over 25 Mb added on this batch (29 Mb, 4669 files batched, 1 (158) added so far); re-opening (prior size: 137.3 Kb)
336388.807 (0) The time we have been running (336388.6) is approaching the resumption interval (336028) - increasing resumption interval to 336419
336388.814 (0) Adding batch to zip file (UpdraftPlus_BinZip): over 25 Mb added on this batch (29 Mb, 4669 files batched, 1 (159) added so far); re-opening (prior size: 137.3 Kb)
336391.339 (0) The time we have been running (336391.3) is approaching the resumption interval (336419) - increasing resumption interval to 336422
336391.369 (0) Adding batch to zip file (UpdraftPlus_BinZip): over 25 Mb added on this batch (29.1 Mb, 4669 files batched, 1 (160) added so far); re-opening (prior size: 137.3 Kb)
336395.968 (0) The time we have been running (336395.8) is approaching the resumption interval (336422) - increasing resumption interval to 336426
336396.066 (0) Adding batch to zip file (UpdraftPlus_BinZip): over 25 Mb added on this batch (29.1 Mb, 4669 files batched, 1 (161) added so far); re-opening (prior size: 137.3 Kb)
390032.715 (0) The time we have been running (390030.1) is approaching the resumption interval (336426) - increasing resumption interval to 390061
390032.758 (0) Adding batch to zip file (UpdraftPlus_BinZip): over 25 Mb added on this batch (29.1 Mb, 4669 files batched, 1 (162) added so far); re-opening (prior size: 137.3 Kb)
393629.210 (0) The time we have been running (393629) is approaching the resumption interval (390061) - increasing resumption interval to 393659
393629.283 (0) Adding batch to zip file (UpdraftPlus_BinZip): over 25 Mb added on this batch (29.1 Mb, 4669 files batched, 1 (163) added so far); re-opening (prior size: 137.3 Kb)
397228.261 (0) The time we have been running (397227.8) is approaching the resumption interval (393659) - increasing resumption interval to 397258
397228.428 (0) Adding batch to zip file (UpdraftPlus_BinZip): over 25 Mb added on this batch (29.1 Mb, 4669 files batched, 1 (164) added so far); re-opening (prior size: 137.3 Kb)
476430.245 (0) The time we have been running (476430.2) is approaching the resumption interval (397258) - increasing resumption interval to 476461
476430.306 (0) Adding batch to zip file (UpdraftPlus_BinZip): over 25 Mb added on this batch (29.1 Mb, 4669 files batched, 1 (165) added so far); re-opening (prior size: 137.3 Kb)
480030.311 (0) The time we have been running (480029.9) is approaching the resumption interval (476461) - increasing resumption interval to 480060
480030.512 (0) Adding batch to zip file (UpdraftPlus_BinZip): over 25 Mb added on this batch (29.1 Mb, 4669 files batched, 1 (166) added so far); re-opening (prior size: 137.3 Kb)
483628.233 (0) The time we have been running (483628) is approaching the resumption interval (480060) - increasing resumption interval to 483659
483628.355 (0) Adding batch to zip file (UpdraftPlus_BinZip): over 25 Mb added on this batch (29.1 Mb, 4669 files batched, 1 (167) added so far); re-opening (prior size: 137.3 Kb)
515640.207 (0) The time we have been running (515639.9) is approaching the resumption interval (483659) - increasing resumption interval to 515670
515640.334 (0) Adding batch to zip file (UpdraftPlus_BinZip): over 25 Mb added on this batch (29.1 Mb, 4669 files batched, 1 (168) added so far); re-opening (prior size: 137.3 Kb)
516478.761 (0) The time we have been running (516478.4) is approaching the resumption interval (515670) - increasing resumption interval to 516509
516478.846 (0) Adding batch to zip file (UpdraftPlus_BinZip): over 25 Mb added on this batch (29.1 Mb, 4669 files batched, 1 (169) added so far); re-opening (prior size: 137.3 Kb)
562830.340 (0) The time we have been running (562830) is approaching the resumption interval (516509) - increasing resumption interval to 562861
562830.479 (0) Adding batch to zip file (UpdraftPlus_BinZip): over 25 Mb added on this batch (29.1 Mb, 4669 files batched, 1 (170) added so far); re-opening (prior size: 137.3 Kb)
566429.209 (0) The time we have been running (566428.9) is approaching the resumption interval (562861) - increasing resumption interval to 566459
566429.270 (0) Adding batch to zip file (UpdraftPlus_BinZip): over 25 Mb added on this batch (29.1 Mb, 4669 files batched, 1 (171) added so far); re-opening (prior size: 137.3 Kb)
570028.182 (0) The time we have been running (570028.1) is approaching the resumption interval (566459) - increasing resumption interval to 570059
570028.209 (0) Adding batch to zip file (UpdraftPlus_BinZip): over 25 Mb added on this batch (29.1 Mb, 4669 files batched, 1 (172) added so far); re-opening (prior size: 137.3 Kb)
649230.861 (0) The time we have been running (649230.7) is approaching the resumption interval (570059) - increasing resumption interval to 649261
649230.985 (0) Adding batch to zip file (UpdraftPlus_BinZip): over 25 Mb added on this batch (29.1 Mb, 4669 files batched, 1 (173) added so far); re-opening (prior size: 137.3 Kb)
652831.416 (0) The time we have been running (652831.3) is approaching the resumption interval (649261) - increasing resumption interval to 652862
652831.529 (0) Adding batch to zip file (UpdraftPlus_BinZip): over 25 Mb added on this batch (29.1 Mb, 4669 files batched, 1 (174) added so far); re-opening (prior size: 137.3 Kb)
656428.456 (0) The time we have been running (656428.3) is approaching the resumption interval (652862) - increasing resumption interval to 656459
656428.493 (0) Adding batch to zip file (UpdraftPlus_BinZip): over 25 Mb added on this batch (29.1 Mb, 4669 files batched, 1 (175) added so far); re-opening (prior size: 137.3 Kb)
671728.781 (0) The time we have been running (671728.7) is approaching the resumption interval (656459) - increasing resumption interval to 671759
671728.806 (0) Adding batch to zip file (UpdraftPlus_BinZip): over 25 Mb added on this batch (29.1 Mb, 4669 files batched, 1 (176) added so far); re-opening (prior size: 137.3 Kb)
735630.692 (0) The time we have been running (735630.4) is approaching the resumption interval (671759) - increasing resumption interval to 735661
735630.704 (0) Adding batch to zip file (UpdraftPlus_BinZip): over 25 Mb added on this batch (29.1 Mb, 4669 files batched, 1 (177) added so far); re-opening (prior size: 137.3 Kb)
739228.945 (0) The time we have been running (739228.7) is approaching the resumption interval (735661) - increasing resumption interval to 739259
739229.017 (0) Adding batch to zip file (UpdraftPlus_BinZip): over 25 Mb added on this batch (29.1 Mb, 4669 files batched, 1 (178) added so far); re-opening (prior size: 137.3 Kb)
742828.758 (0) The time we have been running (742828.6) is approaching the resumption interval (739259) - increasing resumption interval to 742859
742828.811 (0) Adding batch to zip file (UpdraftPlus_BinZip): over 25 Mb added on this batch (29.1 Mb, 4669 files batched, 1 (179) added so far); re-opening (prior size: 137.3 Kb)
