0000.005 (0) Opened log file at time: Sun, 03 Jul 2016 15:38:31 +0000 on http://www.marlino.de/shop
0000.045 (0) UpdraftPlus WordPress backup plugin (http://updraftplus.com): 1.9.19 WP: 4.3.5 PHP: 5.6.22-0+deb8u1 (Linux sweb2a 3.16.0-4-amd64 #1 SMP Debian 3.16.7-ckt20-1+deb8u3 (2016-01-17) x86_64) MySQL: 5.5.37-0+wheezy1-log Server: Apache/2.4.10 (Debian) safe_mode: 0 max_execution_time: 900 memory_limit: 512M (used: 45.4M | 46M) multisite: N mcrypt: Y LANG: C ZipArchive::addFile: Y
0000.050 (0) Free space on disk containing Updraft's temporary directory: 114899.6 Mb
0000.159 (0) Tasks: Backup files: 1 (schedule: daily) Backup DB:  (schedule: daily)
0000.170 (0) Processed schedules. Tasks now: Backup files: 1 Backup DB: 1
0000.190 (0) Requesting semaphore lock (fd)
0000.196 (0) Semaphore (fd) was stuck, set lock time to 2016-07-03 15:38:31
0000.213 (0) Semaphore (fd) reset to 1
0000.216 (0) Set semaphore last lock (fd) time to 2016-07-03 15:38:31
0000.220 (0) Semaphore lock (fd) complete
0000.252 (0) Backup run: resumption=0, nonce=efbde8b4764b, begun at=1467560311 (0s ago), job type=backup
0000.263 (0) Scheduling a resumption (1) after 600 seconds (1467560911) in case this run gets aborted
0000.314 (0) Checking if we have a zip executable available
0000.317 (0) Testing: /usr/bin/zip
0000.373 (0) Output: zip warning: binziptest/test.zip not found or empty
0000.376 (0) Output: adding: binziptest/subdir1/	(in=0) (out=0) (stored 0%)
0000.378 (0) Output: adding: binziptest/subdir1/subdir2/	(in=0) (out=0) (stored 0%)
0000.381 (0) Output: adding: binziptest/subdir1/subdir2/test.html	(in=127) (out=105) (deflated 17%)
0000.385 (0) Output: total bytes=127, compressed=105 -> 17% savings
0000.446 (0) Output: adding: binziptest/subdir1/subdir2/test2.html	(in=134) (out=109) (deflated 19%)
0000.456 (0) Output: total bytes=261, compressed=214 -> 18% savings
0000.474 (0) Working binary zip found: /usr/bin/zip
0000.479 (0) Zip engine: found/will use a binary zip: /usr/bin/zip
0000.480 (0) Creation of backups of directories: beginning
0000.501 (0) Beginning creation of dump of plugins (split every: 800 Mb)
0003.807 (0) Total entities for the zip file: 647 directories, 4669 files (0 skipped as non-modified), 162.2 Mb
0003.817 (0) Adding batch to zip file (UpdraftPlus_BinZip): over 2.0 seconds have passed since the last write (0 Mb, 1 (1) files added so far); re-opening (prior size: 0 Kb)
0000.000 (1) Opened log file at time: Sun, 03 Jul 2016 16:05:53 +0000 on http://www.marlino.de/shop
0000.002 (1) UpdraftPlus WordPress backup plugin (http://updraftplus.com): 1.9.19 WP: 4.3.5 PHP: 5.6.22-0+deb8u1 (Linux sweb2a 3.16.0-4-amd64 #1 SMP Debian 3.16.7-ckt20-1+deb8u3 (2016-01-17) x86_64) MySQL: 5.5.37-0+wheezy1-log Server: Apache/2.4.10 (Debian) safe_mode: 0 max_execution_time: 900 memory_limit: 512M (used: 45.4M | 46M) multisite: N mcrypt: Y LANG: C ZipArchive::addFile: Y
0000.004 (1) Free space on disk containing Updraft's temporary directory: 114891.8 Mb
0000.006 (1) This backup task began over 2 days ago: aborting (1467561953.8242, )
44974.384 (0) The time we have been running (44974.4) is approaching the resumption interval (600) - increasing resumption interval to 45005
44974.457 (0) Zip: backup_2016-07-03-1738_Marlino_Shop_efbde8b4764b-plugins.zip.tmp: 100 files added (on-disk size: 137.3 Kb)
44974.474 (0) Adding batch to zip file (UpdraftPlus_BinZip): over 25 Mb added on this batch (25.4 Mb, 4669 files batched, 129 (130) added so far); re-opening (prior size: 137.3 Kb)
45509.415 (0) The time we have been running (45509.3) is approaching the resumption interval (45005) - increasing resumption interval to 45540
45509.438 (0) Adding batch to zip file (UpdraftPlus_BinZip): over 25 Mb added on this batch (25.7 Mb, 4669 files batched, 1 (131) added so far); re-opening (prior size: 137.3 Kb)
45723.501 (0) The time we have been running (45723.5) is approaching the resumption interval (45540) - increasing resumption interval to 45754
45723.542 (0) Adding batch to zip file (UpdraftPlus_BinZip): over 25 Mb added on this batch (26.3 Mb, 4669 files batched, 1 (132) added so far); re-opening (prior size: 137.3 Kb)
45749.787 (0) The time we have been running (45749.8) is approaching the resumption interval (45754) - increasing resumption interval to 45780
45749.792 (0) Adding batch to zip file (UpdraftPlus_BinZip): over 25 Mb added on this batch (26.6 Mb, 4669 files batched, 1 (133) added so far); re-opening (prior size: 137.3 Kb)
48572.329 (0) The time we have been running (48572.3) is approaching the resumption interval (45780) - increasing resumption interval to 48603
48572.349 (0) Adding batch to zip file (UpdraftPlus_BinZip): over 25 Mb added on this batch (26.6 Mb, 4669 files batched, 1 (134) added so far); re-opening (prior size: 137.3 Kb)
52172.468 (0) The time we have been running (52172.4) is approaching the resumption interval (48603) - increasing resumption interval to 52203
52172.492 (0) Adding batch to zip file (UpdraftPlus_BinZip): over 25 Mb added on this batch (26.9 Mb, 4669 files batched, 1 (135) added so far); re-opening (prior size: 137.3 Kb)
131372.699 (0) The time we have been running (131372.6) is approaching the resumption interval (52203) - increasing resumption interval to 131403
131372.729 (0) Adding batch to zip file (UpdraftPlus_BinZip): over 25 Mb added on this batch (27.2 Mb, 4669 files batched, 1 (136) added so far); re-opening (prior size: 137.3 Kb)
131959.418 (0) The time we have been running (131959.4) is approaching the resumption interval (131403) - increasing resumption interval to 131990
131959.430 (0) Adding batch to zip file (UpdraftPlus_BinZip): over 25 Mb added on this batch (27.3 Mb, 4669 files batched, 1 (137) added so far); re-opening (prior size: 137.3 Kb)
132172.368 (0) The time we have been running (132172.4) is approaching the resumption interval (131990) - increasing resumption interval to 132203
132172.409 (0) Adding batch to zip file (UpdraftPlus_BinZip): over 25 Mb added on this batch (27.5 Mb, 4669 files batched, 1 (138) added so far); re-opening (prior size: 137.3 Kb)
132211.150 (0) The time we have been running (132211.1) is approaching the resumption interval (132203) - increasing resumption interval to 132242
132211.175 (0) Adding batch to zip file (UpdraftPlus_BinZip): over 25 Mb added on this batch (27.5 Mb, 4669 files batched, 1 (139) added so far); re-opening (prior size: 137.3 Kb)
134971.782 (0) The time we have been running (134971.7) is approaching the resumption interval (132242) - increasing resumption interval to 135002
134971.799 (0) Adding batch to zip file (UpdraftPlus_BinZip): over 25 Mb added on this batch (27.7 Mb, 4669 files batched, 1 (140) added so far); re-opening (prior size: 137.3 Kb)
138572.402 (0) The time we have been running (138572.3) is approaching the resumption interval (135002) - increasing resumption interval to 138603
138572.431 (0) Adding batch to zip file (UpdraftPlus_BinZip): over 25 Mb added on this batch (27.9 Mb, 4669 files batched, 1 (141) added so far); re-opening (prior size: 137.3 Kb)
217772.795 (0) The time we have been running (217772.7) is approaching the resumption interval (138603) - increasing resumption interval to 217803
217772.803 (0) Adding batch to zip file (UpdraftPlus_BinZip): over 25 Mb added on this batch (28.1 Mb, 4669 files batched, 1 (142) added so far); re-opening (prior size: 137.3 Kb)
218318.147 (0) The time we have been running (218318) is approaching the resumption interval (217803) - increasing resumption interval to 218349
218318.181 (0) Adding batch to zip file (UpdraftPlus_BinZip): over 25 Mb added on this batch (28.4 Mb, 4669 files batched, 1 (143) added so far); re-opening (prior size: 137.3 Kb)
218537.729 (0) The time we have been running (218537.7) is approaching the resumption interval (218349) - increasing resumption interval to 218568
218537.760 (0) Adding batch to zip file (UpdraftPlus_BinZip): over 25 Mb added on this batch (28.4 Mb, 4669 files batched, 1 (144) added so far); re-opening (prior size: 137.3 Kb)
218573.169 (0) The time we have been running (218573.1) is approaching the resumption interval (218568) - increasing resumption interval to 218604
218573.251 (0) Adding batch to zip file (UpdraftPlus_BinZip): over 25 Mb added on this batch (28.5 Mb, 4669 files batched, 1 (145) added so far); re-opening (prior size: 137.3 Kb)
221372.171 (0) The time we have been running (221372) is approaching the resumption interval (218604) - increasing resumption interval to 221403
221372.209 (0) Adding batch to zip file (UpdraftPlus_BinZip): over 25 Mb added on this batch (28.7 Mb, 4669 files batched, 1 (146) added so far); re-opening (prior size: 137.3 Kb)
224972.106 (0) The time we have been running (224972) is approaching the resumption interval (221403) - increasing resumption interval to 225002
224972.179 (0) Adding batch to zip file (UpdraftPlus_BinZip): over 25 Mb added on this batch (28.8 Mb, 4669 files batched, 1 (147) added so far); re-opening (prior size: 137.3 Kb)
283953.133 (0) The time we have been running (283953.1) is approaching the resumption interval (225002) - increasing resumption interval to 283984
283953.139 (0) Adding batch to zip file (UpdraftPlus_BinZip): over 25 Mb added on this batch (29 Mb, 4669 files batched, 1 (148) added so far); re-opening (prior size: 137.3 Kb)
304171.829 (0) The time we have been running (304171.7) is approaching the resumption interval (283984) - increasing resumption interval to 304202
304171.841 (0) Adding batch to zip file (UpdraftPlus_BinZip): over 25 Mb added on this batch (29 Mb, 4669 files batched, 1 (149) added so far); re-opening (prior size: 137.3 Kb)
304712.330 (0) The time we have been running (304712.3) is approaching the resumption interval (304202) - increasing resumption interval to 304743
304712.338 (0) Adding batch to zip file (UpdraftPlus_BinZip): over 25 Mb added on this batch (29 Mb, 4669 files batched, 1 (150) added so far); re-opening (prior size: 137.3 Kb)
304931.656 (0) The time we have been running (304931.6) is approaching the resumption interval (304743) - increasing resumption interval to 304962
304931.729 (0) Adding batch to zip file (UpdraftPlus_BinZip): over 25 Mb added on this batch (29 Mb, 4669 files batched, 1 (151) added so far); re-opening (prior size: 137.3 Kb)
304967.921 (0) The time we have been running (304967.9) is approaching the resumption interval (304962) - increasing resumption interval to 304998
304968.014 (0) Adding batch to zip file (UpdraftPlus_BinZip): over 25 Mb added on this batch (29 Mb, 4669 files batched, 1 (152) added so far); re-opening (prior size: 137.3 Kb)
307772.240 (0) The time we have been running (307772.2) is approaching the resumption interval (304998) - increasing resumption interval to 307803
307772.255 (0) Adding batch to zip file (UpdraftPlus_BinZip): over 25 Mb added on this batch (29 Mb, 4669 files batched, 1 (153) added so far); re-opening (prior size: 137.3 Kb)
311371.456 (0) The time we have been running (311371.4) is approaching the resumption interval (307803) - increasing resumption interval to 311402
311371.471 (0) Adding batch to zip file (UpdraftPlus_BinZip): over 25 Mb added on this batch (29 Mb, 4669 files batched, 1 (154) added so far); re-opening (prior size: 137.3 Kb)
390572.769 (0) The time we have been running (390572.6) is approaching the resumption interval (311402) - increasing resumption interval to 390603
390572.797 (0) Adding batch to zip file (UpdraftPlus_BinZip): over 25 Mb added on this batch (29 Mb, 4669 files batched, 1 (155) added so far); re-opening (prior size: 137.3 Kb)
391113.246 (0) The time we have been running (391113.1) is approaching the resumption interval (390603) - increasing resumption interval to 391144
391113.268 (0) Adding batch to zip file (UpdraftPlus_BinZip): over 25 Mb added on this batch (29 Mb, 4669 files batched, 1 (156) added so far); re-opening (prior size: 137.3 Kb)
391322.906 (0) The time we have been running (391322.9) is approaching the resumption interval (391144) - increasing resumption interval to 391353
391322.941 (0) Adding batch to zip file (UpdraftPlus_BinZip): over 25 Mb added on this batch (29 Mb, 4669 files batched, 1 (157) added so far); re-opening (prior size: 137.3 Kb)
391358.848 (0) The time we have been running (391358.8) is approaching the resumption interval (391353) - increasing resumption interval to 391389
391358.865 (0) Adding batch to zip file (UpdraftPlus_BinZip): over 25 Mb added on this batch (29 Mb, 4669 files batched, 1 (158) added so far); re-opening (prior size: 137.3 Kb)
394172.002 (0) The time we have been running (394171.9) is approaching the resumption interval (391389) - increasing resumption interval to 394202
394172.015 (0) Adding batch to zip file (UpdraftPlus_BinZip): over 25 Mb added on this batch (29 Mb, 4669 files batched, 1 (159) added so far); re-opening (prior size: 137.3 Kb)
397772.476 (0) The time we have been running (397772.4) is approaching the resumption interval (394202) - increasing resumption interval to 397803
397772.525 (0) Adding batch to zip file (UpdraftPlus_BinZip): over 25 Mb added on this batch (29.1 Mb, 4669 files batched, 1 (160) added so far); re-opening (prior size: 137.3 Kb)
418442.256 (0) The time we have been running (418442.2) is approaching the resumption interval (397803) - increasing resumption interval to 418473
418442.268 (0) Adding batch to zip file (UpdraftPlus_BinZip): over 25 Mb added on this batch (29.1 Mb, 4669 files batched, 1 (161) added so far); re-opening (prior size: 137.3 Kb)
476974.161 (0) The time we have been running (476973.9) is approaching the resumption interval (418473) - increasing resumption interval to 477004
476974.254 (0) Adding batch to zip file (UpdraftPlus_BinZip): over 25 Mb added on this batch (29.1 Mb, 4669 files batched, 1 (162) added so far); re-opening (prior size: 137.3 Kb)
477514.392 (0) The time we have been running (477514.3) is approaching the resumption interval (477004) - increasing resumption interval to 477545
477514.422 (0) Adding batch to zip file (UpdraftPlus_BinZip): over 25 Mb added on this batch (29.1 Mb, 4669 files batched, 1 (163) added so far); re-opening (prior size: 137.3 Kb)
477718.661 (0) The time we have been running (477718.6) is approaching the resumption interval (477545) - increasing resumption interval to 477749
477718.729 (0) Adding batch to zip file (UpdraftPlus_BinZip): over 25 Mb added on this batch (29.1 Mb, 4669 files batched, 1 (164) added so far); re-opening (prior size: 137.3 Kb)
477754.750 (0) The time we have been running (477754.7) is approaching the resumption interval (477749) - increasing resumption interval to 477785
477754.808 (0) Adding batch to zip file (UpdraftPlus_BinZip): over 25 Mb added on this batch (29.1 Mb, 4669 files batched, 1 (165) added so far); re-opening (prior size: 137.3 Kb)
480572.316 (0) The time we have been running (480572.3) is approaching the resumption interval (477785) - increasing resumption interval to 480603
480572.444 (0) Adding batch to zip file (UpdraftPlus_BinZip): over 25 Mb added on this batch (29.1 Mb, 4669 files batched, 1 (166) added so far); re-opening (prior size: 137.3 Kb)
484171.990 (0) The time we have been running (484171.8) is approaching the resumption interval (480603) - increasing resumption interval to 484202
484172.034 (0) Adding batch to zip file (UpdraftPlus_BinZip): over 25 Mb added on this batch (29.1 Mb, 4669 files batched, 1 (167) added so far); re-opening (prior size: 137.3 Kb)
