0000.038 (0) Opened log file at time: Fri, 02 Dec 2016 01:24:41 +0000 on http://www.marlino.de/shop
0000.041 (0) UpdraftPlus WordPress backup plugin (https://updraftplus.com): 1.12.28 WP: 4.6.1 PHP: 5.6.27 (cgi-fcgi, SunOS localhost 5.10 Generic_142901-13 i86pc) MySQL: 5.6.34 WPLANG: de_DE Server: Apache/2.2.31 (Unix) safe_mode: 0 max_execution_time: 900 memory_limit: 256M (used: 26.6M | 27M) multisite: N openssl: OpenSSL 1.0.2j  26 Sep 2016 mcrypt: Y LANG:  ZipArchive::addFile: Y
0000.043 (0) Free space on disk containing Updraft's temporary directory: Unknown
0000.515 (0) Tasks: Backup files:  (schedule: daily) Backup DB: 1 (schedule: twicedaily)
0000.517 (0) Processed schedules. Tasks now: Backup files:  Backup DB: 1
0001.042 (0) Requesting semaphore lock (d) (apparently via scheduler: last_scheduled_action_called_at=1480598622, seconds_ago=43260)
0001.048 (0) Set semaphore last lock (d) time to 2016-12-02 01:24:42
0001.050 (0) Semaphore lock (d) complete
0001.058 (0) Backup run: resumption=0, nonce=75210212c1ae, begun at=1480641881 (1s ago), job type=backup
0001.062 (0) Scheduling a resumption (1) after 300 seconds (1480642182) in case this run gets aborted
0001.107 (0) This backup run is not intended for files - skipping
0001.110 (0) Beginning creation of database dump (WordPress DB)
0001.116 (0) Testing: /usr/bin/mysqldump
0001.183 (0) Output: /*!40103 SET @OLD_TIME_ZONE=@@TIME_ZONE */;\n/*!40103 SET TIME_ZONE='+00:00' */;\n/*!40014 SET @OLD_UNIQUE_CHECKS=@@UNIQUE_CHECKS, UNIQUE_CHECKS=0 */;\n/*!40014 SET @OLD_FOREIGN_KEY_CHECKS=@@FOREIGN_KEY_CHECKS, FOREIGN_KEY_CHECKS=0 */;\n/*!40101 SET @OLD_SQL_MODE=@@SQL_MODE, SQL_MODE='NO_AUTO_VALUE_ON_ZERO' */;\n/*!40111 SET @OLD_SQL_NOTES=@@SQL_NOTES, SQL_NOTES=0 */;\nDROP TABLE IF EXISTS `wp_options`;\n/*!40101 SET @saved_cs_client     = @@character_set_client */;\n/*!40101 SET character_set_client = utf8 */;\nCRE (truncated - 1190 bytes total)
0001.187 (0) Working binary mysqldump found: /usr/bin/mysqldump
0001.233 (0) Table wp_options: Total expected rows (approximate): 1073
0001.314 (0) Table wp_options: Total rows added: 1118 in 0.08 seconds
0001.318 (0) Table wp_options: finishing file (backup_2016-12-02-0324_Marlino_Shop_75210212c1ae-db-table-wp_options.table.gz - 173.8 KB)
0001.329 (0) Table wp_users: Total expected rows (approximate): 55
0001.335 (0) Table wp_users: Total rows added: 56 in 0.00 seconds
0001.338 (0) Table wp_users: finishing file (backup_2016-12-02-0324_Marlino_Shop_75210212c1ae-db-table-wp_users.table.gz - 4 KB)
0001.354 (0) Table wp_usermeta: Total expected rows (approximate): 1778
0001.401 (0) Table wp_usermeta: Total rows added: 1815 in 0.05 seconds
0001.404 (0) Table wp_usermeta: finishing file (backup_2016-12-02-0324_Marlino_Shop_75210212c1ae-db-table-wp_usermeta.table.gz - 18.6 KB)
0001.421 (0) Table wp_commentmeta: Total expected rows (approximate): 1306
0001.447 (0) Table wp_commentmeta: Total rows added: 1272 in 0.02 seconds
0001.451 (0) Table wp_commentmeta: finishing file (backup_2016-12-02-0324_Marlino_Shop_75210212c1ae-db-table-wp_commentmeta.table.gz - 6.6 KB)
0001.461 (0) Table wp_comments: Total expected rows (approximate): 1290
0001.577 (0) Table wp_comments: Total rows added: 1312 in 0.11 seconds
0001.582 (0) Table wp_comments: finishing file (backup_2016-12-02-0324_Marlino_Shop_75210212c1ae-db-table-wp_comments.table.gz - 20.1 KB)
0001.594 (0) Table wp_links: Total expected rows (approximate): 0
0001.598 (0) Table wp_links: Total rows added: 0 in 0.00 seconds
0001.601 (0) Table wp_links: finishing file (backup_2016-12-02-0324_Marlino_Shop_75210212c1ae-db-table-wp_links.table.gz - 0.4 KB)
0001.611 (0) Table wp_postmeta: Total expected rows (approximate): 41477
0001.884 (0) Table wp_postmeta: binary mysqldump finished (writes: 34) in 0.27 seconds
0001.913 (0) Table wp_postmeta: finishing file (backup_2016-12-02-0324_Marlino_Shop_75210212c1ae-db-table-wp_postmeta.table.gz - 312.8 KB)
0001.926 (0) Table wp_posts: Total expected rows (approximate): 7305
0002.948 (0) Table wp_posts: Total rows added: 7531 in 1.02 seconds
0002.953 (0) Table wp_posts: finishing file (backup_2016-12-02-0324_Marlino_Shop_75210212c1ae-db-table-wp_posts.table.gz - 188.1 KB)
0002.971 (0) Table wp_term_relationships: Total expected rows (approximate): 705
0002.983 (0) Table wp_term_relationships: Total rows added: 633 in 0.01 seconds
0002.987 (0) Table wp_term_relationships: finishing file (backup_2016-12-02-0324_Marlino_Shop_75210212c1ae-db-table-wp_term_relationships.table.gz - 2.1 KB)
0002.999 (0) Table wp_term_taxonomy: Total expected rows (approximate): 193
0003.006 (0) Table wp_term_taxonomy: Total rows added: 190 in 0.01 seconds
0003.009 (0) Table wp_term_taxonomy: finishing file (backup_2016-12-02-0324_Marlino_Shop_75210212c1ae-db-table-wp_term_taxonomy.table.gz - 1.8 KB)
0003.020 (0) Table wp_termmeta: Total expected rows (approximate): 189
0003.026 (0) Table wp_termmeta: Total rows added: 177 in 0.00 seconds
0003.030 (0) Table wp_termmeta: finishing file (backup_2016-12-02-0324_Marlino_Shop_75210212c1ae-db-table-wp_termmeta.table.gz - 1.5 KB)
0003.040 (0) Table wp_terms: Total expected rows (approximate): 193
0003.047 (0) Table wp_terms: Total rows added: 190 in 0.01 seconds
0003.050 (0) Table wp_terms: finishing file (backup_2016-12-02-0324_Marlino_Shop_75210212c1ae-db-table-wp_terms.table.gz - 2.7 KB)
0003.062 (0) Table wp_woocommerce_order_itemmeta: Total expected rows (approximate): 4909
0003.195 (0) Table wp_woocommerce_order_itemmeta: Total rows added: 5052 in 0.13 seconds
0003.200 (0) Table wp_woocommerce_order_itemmeta: finishing file (backup_2016-12-02-0324_Marlino_Shop_75210212c1ae-db-table-wp_woocommerce_order_itemmeta.table.gz - 32.9 KB)
0003.211 (0) Table wp_woocommerce_payment_tokenmeta: Total expected rows (approximate): 0
0003.216 (0) Table wp_woocommerce_payment_tokenmeta: Total rows added: 0 in 0.00 seconds
0003.219 (0) Table wp_woocommerce_payment_tokenmeta: finishing file (backup_2016-12-02-0324_Marlino_Shop_75210212c1ae-db-table-wp_woocommerce_payment_tokenmeta.table.gz - 0.4 KB)
0003.242 (0) Table wp_cleanup_optimizer_block_range_ip: Total expected rows (approximate): 0
0003.246 (0) Table wp_cleanup_optimizer_block_range_ip: Total rows added: 0 in 0.00 seconds
0003.249 (0) Table wp_cleanup_optimizer_block_range_ip: finishing file (backup_2016-12-02-0324_Marlino_Shop_75210212c1ae-db-table-wp_cleanup_optimizer_block_range_ip.table.gz - 0.3 KB)
0003.261 (0) Table wp_cleanup_optimizer_block_single_ip: Total expected rows (approximate): 0
0003.266 (0) Table wp_cleanup_optimizer_block_single_ip: Total rows added: 0 in 0.00 seconds
0003.269 (0) Table wp_cleanup_optimizer_block_single_ip: finishing file (backup_2016-12-02-0324_Marlino_Shop_75210212c1ae-db-table-wp_cleanup_optimizer_block_single_ip.table.gz - 0.3 KB)
0003.280 (0) Table wp_cleanup_optimizer_db_scheduler: Total expected rows (approximate): 0
0003.284 (0) Table wp_cleanup_optimizer_db_scheduler: Total rows added: 0 in 0.00 seconds
0003.287 (0) Table wp_cleanup_optimizer_db_scheduler: finishing file (backup_2016-12-02-0324_Marlino_Shop_75210212c1ae-db-table-wp_cleanup_optimizer_db_scheduler.table.gz - 0.3 KB)
0003.298 (0) Table wp_cleanup_optimizer_licensing: Total expected rows (approximate): 0
0003.301 (0) Table wp_cleanup_optimizer_licensing: Total rows added: 0 in 0.00 seconds
0003.305 (0) Table wp_cleanup_optimizer_licensing: finishing file (backup_2016-12-02-0324_Marlino_Shop_75210212c1ae-db-table-wp_cleanup_optimizer_licensing.table.gz - 0.3 KB)
0003.317 (0) Table wp_cleanup_optimizer_login_log: Total expected rows (approximate): 0
0003.322 (0) Table wp_cleanup_optimizer_login_log: Total rows added: 0 in 0.00 seconds
0003.325 (0) Table wp_cleanup_optimizer_login_log: finishing file (backup_2016-12-02-0324_Marlino_Shop_75210212c1ae-db-table-wp_cleanup_optimizer_login_log.table.gz - 0.4 KB)
0003.339 (0) Table wp_cleanup_optimizer_plugin_settings: Total expected rows (approximate): 11
0003.344 (0) Table wp_cleanup_optimizer_plugin_settings: Total rows added: 11 in 0.00 seconds
0003.348 (0) Table wp_cleanup_optimizer_plugin_settings: finishing file (backup_2016-12-02-0324_Marlino_Shop_75210212c1ae-db-table-wp_cleanup_optimizer_plugin_settings.table.gz - 0.6 KB)
0003.369 (0) Table wp_cleanup_optimizer_wp_scheduler: Total expected rows (approximate): 0
0003.373 (0) Table wp_cleanup_optimizer_wp_scheduler: Total rows added: 0 in 0.00 seconds
0003.377 (0) Table wp_cleanup_optimizer_wp_scheduler: finishing file (backup_2016-12-02-0324_Marlino_Shop_75210212c1ae-db-table-wp_cleanup_optimizer_wp_scheduler.table.gz - 0.3 KB)
0003.414 (0) Table wp_icl_cms_nav_cache: Total expected rows (approximate): 0
0003.418 (0) Table wp_icl_cms_nav_cache: Total rows added: 0 in 0.00 seconds
0003.422 (0) Table wp_icl_cms_nav_cache: finishing file (backup_2016-12-02-0324_Marlino_Shop_75210212c1ae-db-table-wp_icl_cms_nav_cache.table.gz - 0.3 KB)
0003.433 (0) Table wp_icl_content_status: Total expected rows (approximate): 0
0003.437 (0) Table wp_icl_content_status: Total rows added: 0 in 0.00 seconds
0003.440 (0) Table wp_icl_content_status: finishing file (backup_2016-12-02-0324_Marlino_Shop_75210212c1ae-db-table-wp_icl_content_status.table.gz - 0.3 KB)
0003.453 (0) Table wp_icl_core_status: Total expected rows (approximate): 0
0003.457 (0) Table wp_icl_core_status: Total rows added: 0 in 0.00 seconds
0003.460 (0) Table wp_icl_core_status: finishing file (backup_2016-12-02-0324_Marlino_Shop_75210212c1ae-db-table-wp_icl_core_status.table.gz - 0.3 KB)
0003.473 (0) Table wp_icl_flags: Total expected rows (approximate): 64
0003.480 (0) Table wp_icl_flags: Total rows added: 64 in 0.00 seconds
0003.484 (0) Table wp_icl_flags: finishing file (backup_2016-12-02-0324_Marlino_Shop_75210212c1ae-db-table-wp_icl_flags.table.gz - 0.8 KB)
0003.498 (0) Table wp_icl_languages: Total expected rows (approximate): 64
0003.504 (0) Table wp_icl_languages: Total rows added: 64 in 0.00 seconds
0003.508 (0) Table wp_icl_languages: finishing file (backup_2016-12-02-0324_Marlino_Shop_75210212c1ae-db-table-wp_icl_languages.table.gz - 1.5 KB)
0003.520 (0) Table wp_icl_languages_translations: Total expected rows (approximate): 4096
0003.612 (0) Table wp_icl_languages_translations: Total rows added: 4096 in 0.09 seconds
0003.617 (0) Table wp_icl_languages_translations: finishing file (backup_2016-12-02-0324_Marlino_Shop_75210212c1ae-db-table-wp_icl_languages_translations.table.gz - 31.9 KB)
0003.629 (0) Table wp_icl_locale_map: Total expected rows (approximate): 2
0003.634 (0) Table wp_icl_locale_map: Total rows added: 2 in 0.00 seconds
0003.639 (0) Table wp_icl_locale_map: finishing file (backup_2016-12-02-0324_Marlino_Shop_75210212c1ae-db-table-wp_icl_locale_map.table.gz - 0.3 KB)
0003.652 (0) Table wp_icl_message_status: Total expected rows (approximate): 0
0003.658 (0) Table wp_icl_message_status: Total rows added: 0 in 0.00 seconds
0003.662 (0) Table wp_icl_message_status: finishing file (backup_2016-12-02-0324_Marlino_Shop_75210212c1ae-db-table-wp_icl_message_status.table.gz - 0.4 KB)
0003.677 (0) Table wp_icl_node: Total expected rows (approximate): 0
0003.681 (0) Table wp_icl_node: Total rows added: 0 in 0.00 seconds
0003.684 (0) Table wp_icl_node: finishing file (backup_2016-12-02-0324_Marlino_Shop_75210212c1ae-db-table-wp_icl_node.table.gz - 0.3 KB)
0003.696 (0) Table wp_icl_reminders: Total expected rows (approximate): 0
0003.699 (0) Table wp_icl_reminders: Total rows added: 0 in 0.00 seconds
0003.702 (0) Table wp_icl_reminders: finishing file (backup_2016-12-02-0324_Marlino_Shop_75210212c1ae-db-table-wp_icl_reminders.table.gz - 0.3 KB)
0003.713 (0) Table wp_icl_string_positions: Total expected rows (approximate): 6444
0003.875 (0) Table wp_icl_string_positions: Total rows added: 6563 in 0.16 seconds
0003.880 (0) Table wp_icl_string_positions: finishing file (backup_2016-12-02-0324_Marlino_Shop_75210212c1ae-db-table-wp_icl_string_positions.table.gz - 66.9 KB)
0003.891 (0) Table wp_icl_string_status: Total expected rows (approximate): 0
0003.895 (0) Table wp_icl_string_status: Total rows added: 0 in 0.00 seconds
0003.897 (0) Table wp_icl_string_status: finishing file (backup_2016-12-02-0324_Marlino_Shop_75210212c1ae-db-table-wp_icl_string_status.table.gz - 0.3 KB)
0003.909 (0) Table wp_icl_string_translations: Total expected rows (approximate): 3474
0004.051 (0) Table wp_icl_string_translations: Total rows added: 3474 in 0.14 seconds
0004.055 (0) Table wp_icl_string_translations: finishing file (backup_2016-12-02-0324_Marlino_Shop_75210212c1ae-db-table-wp_icl_string_translations.table.gz - 70.7 KB)
0004.068 (0) Table wp_icl_strings: Total expected rows (approximate): 3889
0004.242 (0) Table wp_icl_strings: Total rows added: 3966 in 0.17 seconds
0004.246 (0) Table wp_icl_strings: finishing file (backup_2016-12-02-0324_Marlino_Shop_75210212c1ae-db-table-wp_icl_strings.table.gz - 144.1 KB)
0004.261 (0) Table wp_icl_translate: Total expected rows (approximate): 1247
0004.368 (0) Table wp_icl_translate: Total rows added: 1260 in 0.10 seconds
0004.373 (0) Table wp_icl_translate: finishing file (backup_2016-12-02-0324_Marlino_Shop_75210212c1ae-db-table-wp_icl_translate.table.gz - 77.6 KB)
0004.392 (0) Table wp_icl_translate_job: Total expected rows (approximate): 214
0004.401 (0) Table wp_icl_translate_job: Total rows added: 214 in 0.01 seconds
0004.406 (0) Table wp_icl_translate_job: finishing file (backup_2016-12-02-0324_Marlino_Shop_75210212c1ae-db-table-wp_icl_translate_job.table.gz - 1.5 KB)
0004.422 (0) Table wp_icl_translation_status: Total expected rows (approximate): 174
0004.456 (0) Table wp_icl_translation_status: Total rows added: 174 in 0.03 seconds
0004.462 (0) Table wp_icl_translation_status: finishing file (backup_2016-12-02-0324_Marlino_Shop_75210212c1ae-db-table-wp_icl_translation_status.table.gz - 43.1 KB)
0004.475 (0) Table wp_icl_translations: Total expected rows (approximate): 6249
0004.679 (0) Table wp_icl_translations: Total rows added: 5886 in 0.20 seconds
0004.685 (0) Table wp_icl_translations: finishing file (backup_2016-12-02-0324_Marlino_Shop_75210212c1ae-db-table-wp_icl_translations.table.gz - 49.3 KB)
0004.702 (0) Table wp_mc4wp_log: Total expected rows (approximate): 189
0004.717 (0) Table wp_mc4wp_log: Total rows added: 192 in 0.01 seconds
0004.722 (0) Table wp_mc4wp_log: finishing file (backup_2016-12-02-0324_Marlino_Shop_75210212c1ae-db-table-wp_mc4wp_log.table.gz - 6 KB)
0004.735 (0) Table wp_wc_crm_groups: Total expected rows (approximate): 0
0004.739 (0) Table wp_wc_crm_groups: Total rows added: 0 in 0.00 seconds
0004.742 (0) Table wp_wc_crm_groups: finishing file (backup_2016-12-02-0324_Marlino_Shop_75210212c1ae-db-table-wp_wc_crm_groups.table.gz - 0.3 KB)
0004.756 (0) Table wp_wc_crm_log: Total expected rows (approximate): 0
0004.761 (0) Table wp_wc_crm_log: Total rows added: 0 in 0.00 seconds
0004.765 (0) Table wp_wc_crm_log: finishing file (backup_2016-12-02-0324_Marlino_Shop_75210212c1ae-db-table-wp_wc_crm_log.table.gz - 0.4 KB)
0004.779 (0) Table wp_woocommerce_api_keys: Total expected rows (approximate): 0
0004.785 (0) Table wp_woocommerce_api_keys: Total rows added: 0 in 0.00 seconds
0004.789 (0) Table wp_woocommerce_api_keys: finishing file (backup_2016-12-02-0324_Marlino_Shop_75210212c1ae-db-table-wp_woocommerce_api_keys.table.gz - 0.4 KB)
0004.807 (0) Table wp_woocommerce_attribute_taxonomies: Total expected rows (approximate): 0
0004.812 (0) Table wp_woocommerce_attribute_taxonomies: Total rows added: 1 in 0.00 seconds
0004.816 (0) Table wp_woocommerce_attribute_taxonomies: finishing file (backup_2016-12-02-0324_Marlino_Shop_75210212c1ae-db-table-wp_woocommerce_attribute_taxonomies.table.gz - 0.4 KB)
0004.832 (0) Table wp_woocommerce_downloadable_product_permissions: Total expected rows (approximate): 0
0004.837 (0) Table wp_woocommerce_downloadable_product_permissions: Total rows added: 0 in 0.00 seconds
0004.840 (0) Table wp_woocommerce_downloadable_product_permissions: finishing file (backup_2016-12-02-0324_Marlino_Shop_75210212c1ae-db-table-wp_woocommerce_downloadable_product_permissions.table.gz - 0.5 KB)
0004.853 (0) Table wp_woocommerce_order_items: Total expected rows (approximate): 711
0004.872 (0) Table wp_woocommerce_order_items: Total rows added: 729 in 0.02 seconds
0004.875 (0) Table wp_woocommerce_order_items: finishing file (backup_2016-12-02-0324_Marlino_Shop_75210212c1ae-db-table-wp_woocommerce_order_items.table.gz - 4.3 KB)
0004.887 (0) Table wp_woocommerce_payment_tokens: Total expected rows (approximate): 0
0004.891 (0) Table wp_woocommerce_payment_tokens: Total rows added: 0 in 0.00 seconds
0004.894 (0) Table wp_woocommerce_payment_tokens: finishing file (backup_2016-12-02-0324_Marlino_Shop_75210212c1ae-db-table-wp_woocommerce_payment_tokens.table.gz - 0.4 KB)
0004.907 (0) Table wp_woocommerce_sessions: Total expected rows (approximate): 0
0004.912 (0) Table wp_woocommerce_sessions: Total rows added: 0 in 0.00 seconds
0004.916 (0) Table wp_woocommerce_sessions: finishing file (backup_2016-12-02-0324_Marlino_Shop_75210212c1ae-db-table-wp_woocommerce_sessions.table.gz - 0.3 KB)
0004.929 (0) Table wp_woocommerce_shipping_zone_locations: Total expected rows (approximate): 4
0004.934 (0) Table wp_woocommerce_shipping_zone_locations: Total rows added: 4 in 0.00 seconds
0004.937 (0) Table wp_woocommerce_shipping_zone_locations: finishing file (backup_2016-12-02-0324_Marlino_Shop_75210212c1ae-db-table-wp_woocommerce_shipping_zone_locations.table.gz - 0.4 KB)
0004.949 (0) Table wp_woocommerce_shipping_zone_methods: Total expected rows (approximate): 2
0004.954 (0) Table wp_woocommerce_shipping_zone_methods: Total rows added: 3 in 0.00 seconds
0004.957 (0) Table wp_woocommerce_shipping_zone_methods: finishing file (backup_2016-12-02-0324_Marlino_Shop_75210212c1ae-db-table-wp_woocommerce_shipping_zone_methods.table.gz - 0.4 KB)
0004.970 (0) Table wp_woocommerce_shipping_zones: Total expected rows (approximate): 2
0004.975 (0) Table wp_woocommerce_shipping_zones: Total rows added: 3 in 0.00 seconds
0004.983 (0) Table wp_woocommerce_shipping_zones: finishing file (backup_2016-12-02-0324_Marlino_Shop_75210212c1ae-db-table-wp_woocommerce_shipping_zones.table.gz - 0.4 KB)
0005.012 (0) Table wp_woocommerce_tax_rate_locations: Total expected rows (approximate): 0
0005.017 (0) Table wp_woocommerce_tax_rate_locations: Total rows added: 0 in 0.00 seconds
0005.020 (0) Table wp_woocommerce_tax_rate_locations: finishing file (backup_2016-12-02-0324_Marlino_Shop_75210212c1ae-db-table-wp_woocommerce_tax_rate_locations.table.gz - 0.4 KB)
0005.034 (0) Table wp_woocommerce_tax_rates: Total expected rows (approximate): 2
0005.039 (0) Table wp_woocommerce_tax_rates: Total rows added: 2 in 0.00 seconds
0005.043 (0) Table wp_woocommerce_tax_rates: finishing file (backup_2016-12-02-0324_Marlino_Shop_75210212c1ae-db-table-wp_woocommerce_tax_rates.table.gz - 0.5 KB)
0005.055 (0) backup_2016-12-02-0324_Marlino_Shop_75210212c1ae-db-table-wp_options.table.gz (1/53): adding to final database dump
0005.114 (0) backup_2016-12-02-0324_Marlino_Shop_75210212c1ae-db-table-wp_users.table.gz (2/53): adding to final database dump
0005.118 (0) backup_2016-12-02-0324_Marlino_Shop_75210212c1ae-db-table-wp_usermeta.table.gz (3/53): adding to final database dump
0005.139 (0) backup_2016-12-02-0324_Marlino_Shop_75210212c1ae-db-table-wp_commentmeta.table.gz (4/53): adding to final database dump
0005.151 (0) backup_2016-12-02-0324_Marlino_Shop_75210212c1ae-db-table-wp_comments.table.gz (5/53): adding to final database dump
0005.176 (0) backup_2016-12-02-0324_Marlino_Shop_75210212c1ae-db-table-wp_links.table.gz (6/53): adding to final database dump
0005.179 (0) backup_2016-12-02-0324_Marlino_Shop_75210212c1ae-db-table-wp_postmeta.table.gz (7/53): adding to final database dump
0005.383 (0) backup_2016-12-02-0324_Marlino_Shop_75210212c1ae-db-table-wp_posts.table.gz (8/53): adding to final database dump
0005.602 (0) backup_2016-12-02-0324_Marlino_Shop_75210212c1ae-db-table-wp_term_relationships.table.gz (9/53): adding to final database dump
0005.608 (0) backup_2016-12-02-0324_Marlino_Shop_75210212c1ae-db-table-wp_term_taxonomy.table.gz (10/53): adding to final database dump
0005.613 (0) backup_2016-12-02-0324_Marlino_Shop_75210212c1ae-db-table-wp_termmeta.table.gz (11/53): adding to final database dump
0005.618 (0) backup_2016-12-02-0324_Marlino_Shop_75210212c1ae-db-table-wp_terms.table.gz (12/53): adding to final database dump
0005.623 (0) backup_2016-12-02-0324_Marlino_Shop_75210212c1ae-db-table-wp_woocommerce_order_itemmeta.table.gz (13/53): adding to final database dump
0005.662 (0) backup_2016-12-02-0324_Marlino_Shop_75210212c1ae-db-table-wp_woocommerce_payment_tokenmeta.table.gz (14/53): adding to final database dump
0005.665 (0) backup_2016-12-02-0324_Marlino_Shop_75210212c1ae-db-table-wp_cleanup_optimizer_block_range_ip.table.gz (15/53): adding to final database dump
0005.670 (0) backup_2016-12-02-0324_Marlino_Shop_75210212c1ae-db-table-wp_cleanup_optimizer_block_single_ip.table.gz (16/53): adding to final database dump
0005.673 (0) backup_2016-12-02-0324_Marlino_Shop_75210212c1ae-db-table-wp_cleanup_optimizer_db_scheduler.table.gz (17/53): adding to final database dump
0005.677 (0) backup_2016-12-02-0324_Marlino_Shop_75210212c1ae-db-table-wp_cleanup_optimizer_licensing.table.gz (18/53): adding to final database dump
0005.680 (0) backup_2016-12-02-0324_Marlino_Shop_75210212c1ae-db-table-wp_cleanup_optimizer_login_log.table.gz (19/53): adding to final database dump
0005.683 (0) backup_2016-12-02-0324_Marlino_Shop_75210212c1ae-db-table-wp_cleanup_optimizer_plugin_settings.table.gz (20/53): adding to final database dump
0005.686 (0) backup_2016-12-02-0324_Marlino_Shop_75210212c1ae-db-table-wp_cleanup_optimizer_wp_scheduler.table.gz (21/53): adding to final database dump
0005.689 (0) backup_2016-12-02-0324_Marlino_Shop_75210212c1ae-db-table-wp_icl_cms_nav_cache.table.gz (22/53): adding to final database dump
0005.693 (0) backup_2016-12-02-0324_Marlino_Shop_75210212c1ae-db-table-wp_icl_content_status.table.gz (23/53): adding to final database dump
0005.697 (0) backup_2016-12-02-0324_Marlino_Shop_75210212c1ae-db-table-wp_icl_core_status.table.gz (24/53): adding to final database dump
0005.701 (0) backup_2016-12-02-0324_Marlino_Shop_75210212c1ae-db-table-wp_icl_flags.table.gz (25/53): adding to final database dump
0005.705 (0) backup_2016-12-02-0324_Marlino_Shop_75210212c1ae-db-table-wp_icl_languages.table.gz (26/53): adding to final database dump
0005.708 (0) backup_2016-12-02-0324_Marlino_Shop_75210212c1ae-db-table-wp_icl_languages_translations.table.gz (27/53): adding to final database dump
0005.741 (0) backup_2016-12-02-0324_Marlino_Shop_75210212c1ae-db-table-wp_icl_locale_map.table.gz (28/53): adding to final database dump
0005.745 (0) backup_2016-12-02-0324_Marlino_Shop_75210212c1ae-db-table-wp_icl_message_status.table.gz (29/53): adding to final database dump
0005.750 (0) backup_2016-12-02-0324_Marlino_Shop_75210212c1ae-db-table-wp_icl_node.table.gz (30/53): adding to final database dump
0005.753 (0) backup_2016-12-02-0324_Marlino_Shop_75210212c1ae-db-table-wp_icl_reminders.table.gz (31/53): adding to final database dump
0005.756 (0) backup_2016-12-02-0324_Marlino_Shop_75210212c1ae-db-table-wp_icl_string_positions.table.gz (32/53): adding to final database dump
0005.827 (0) backup_2016-12-02-0324_Marlino_Shop_75210212c1ae-db-table-wp_icl_string_status.table.gz (33/53): adding to final database dump
0005.830 (0) backup_2016-12-02-0324_Marlino_Shop_75210212c1ae-db-table-wp_icl_string_translations.table.gz (34/53): adding to final database dump
0005.875 (0) backup_2016-12-02-0324_Marlino_Shop_75210212c1ae-db-table-wp_icl_strings.table.gz (35/53): adding to final database dump
0005.935 (0) backup_2016-12-02-0324_Marlino_Shop_75210212c1ae-db-table-wp_icl_translate.table.gz (36/53): adding to final database dump
0005.973 (0) backup_2016-12-02-0324_Marlino_Shop_75210212c1ae-db-table-wp_icl_translate_job.table.gz (37/53): adding to final database dump
0005.978 (0) backup_2016-12-02-0324_Marlino_Shop_75210212c1ae-db-table-wp_icl_translation_status.table.gz (38/53): adding to final database dump
0006.001 (0) backup_2016-12-02-0324_Marlino_Shop_75210212c1ae-db-table-wp_icl_translations.table.gz (39/53): adding to final database dump
0006.048 (0) backup_2016-12-02-0324_Marlino_Shop_75210212c1ae-db-table-wp_mc4wp_log.table.gz (40/53): adding to final database dump
0006.055 (0) backup_2016-12-02-0324_Marlino_Shop_75210212c1ae-db-table-wp_wc_crm_groups.table.gz (41/53): adding to final database dump
0006.059 (0) backup_2016-12-02-0324_Marlino_Shop_75210212c1ae-db-table-wp_wc_crm_log.table.gz (42/53): adding to final database dump
0006.062 (0) backup_2016-12-02-0324_Marlino_Shop_75210212c1ae-db-table-wp_woocommerce_api_keys.table.gz (43/53): adding to final database dump
0006.065 (0) backup_2016-12-02-0324_Marlino_Shop_75210212c1ae-db-table-wp_woocommerce_attribute_taxonomies.table.gz (44/53): adding to final database dump
0006.068 (0) backup_2016-12-02-0324_Marlino_Shop_75210212c1ae-db-table-wp_woocommerce_downloadable_product_permissions.table.gz (45/53): adding to final database dump
0006.071 (0) backup_2016-12-02-0324_Marlino_Shop_75210212c1ae-db-table-wp_woocommerce_order_items.table.gz (46/53): adding to final database dump
0006.079 (0) backup_2016-12-02-0324_Marlino_Shop_75210212c1ae-db-table-wp_woocommerce_payment_tokens.table.gz (47/53): adding to final database dump
0006.082 (0) backup_2016-12-02-0324_Marlino_Shop_75210212c1ae-db-table-wp_woocommerce_sessions.table.gz (48/53): adding to final database dump
0006.085 (0) backup_2016-12-02-0324_Marlino_Shop_75210212c1ae-db-table-wp_woocommerce_shipping_zone_locations.table.gz (49/53): adding to final database dump
0006.088 (0) backup_2016-12-02-0324_Marlino_Shop_75210212c1ae-db-table-wp_woocommerce_shipping_zone_methods.table.gz (50/53): adding to final database dump
0006.091 (0) backup_2016-12-02-0324_Marlino_Shop_75210212c1ae-db-table-wp_woocommerce_shipping_zones.table.gz (51/53): adding to final database dump
0006.094 (0) backup_2016-12-02-0324_Marlino_Shop_75210212c1ae-db-table-wp_woocommerce_tax_rate_locations.table.gz (52/53): adding to final database dump
0006.098 (0) backup_2016-12-02-0324_Marlino_Shop_75210212c1ae-db-table-wp_woocommerce_tax_rates.table.gz (53/53): adding to final database dump
0006.103 (0) backup_2016-12-02-0324_Marlino_Shop_75210212c1ae-db.gz: finished writing out complete database file (1264 KB)
0006.970 (0) Total database tables backed up: 53 (backup_2016-12-02-0324_Marlino_Shop_75210212c1ae-db.gz, size: 1300930, checksum (SHA1): 773d78f76ca0f42ca0207b47387cf339455fb814)
0006.984 (0) backup_2016-12-02-0324_Marlino_Shop_75210212c1ae-db.gz: db: This file has not yet been successfully uploaded: will queue
0006.987 (0) Saving backup history. Total backup size: 1.2 MB
0006.996 (0) Requesting upload of the files that have not yet been successfully uploaded (1)
0007.004 (0) Cloud backup selection (1/1):  (last)
0007.018 (0) No remote despatch: user chose no remote backup service
0007.025 (0) Recording as successfully uploaded: backup_2016-12-02-0324_Marlino_Shop_75210212c1ae-db.gz (a4dbb14e1fe4f1d656235e2bd13c1ecc)
0007.040 (0) Retain: beginning examination of existing backup sets; user setting: retain_files=2, retain_db=4
0007.042 (0) Number of backup sets in history: 7; groups (db): 1
0007.045 (0) Examining (for databases) backup set with group_id=0, nonce=75210212c1ae, datestamp=1480641881 (Dec 02 2016 01:24:41)
0007.048 (0) This backup set is the backup set just made, so will not be deleted.
0007.050 (0) Examining (for databases) backup set with group_id=0, nonce=d727e19e04ef, datestamp=1480607343 (Dec 01 2016 15:49:03)
0007.053 (0) Examining (for databases) backup set with group_id=0, nonce=761508cc16c9, datestamp=1480598621 (Dec 01 2016 13:23:41)
0007.055 (0) This backup set remains non-empty (f=0/d=1); will retain in history
0007.058 (0) Examining (for databases) backup set with group_id=0, nonce=ed46a1cb400a, datestamp=1480558356 (Dec 01 2016 02:12:36)
0007.060 (0) This backup set remains non-empty (f=0/d=1); will retain in history
0007.063 (0) Examining (for databases) backup set with group_id=0, nonce=9a285808a64c, datestamp=1480521063 (Nov 30 2016 15:51:03)
0007.066 (0) Examining (for databases) backup set with group_id=0, nonce=8ece24b0984e, datestamp=1480514543 (Nov 30 2016 14:02:23)
0007.069 (0) This backup set remains non-empty (f=0/d=1); will retain in history
0007.072 (0) Examining (for databases) backup set with group_id=0, nonce=4127eb30ad8f, datestamp=1480469743 (Nov 30 2016 01:35:43)
0007.075 (0) 1480469743: db: this set includes a database (backup_2016-11-30-0335_Marlino_Shop_4127eb30ad8f-db.gz); db count is now 4
0007.078 (0) 1480469743: db: over retain limit (4); will delete this database
0007.081 (0) Delete file: backup_2016-11-30-0335_Marlino_Shop_4127eb30ad8f-db.gz, service=none
0007.084 (0) Deleting local copy (backup_2016-11-30-0335_Marlino_Shop_4127eb30ad8f-db.gz)
0007.108 (0) This backup set is now empty; will remove from history
0007.112 (0) Deleting log file (log.4127eb30ad8f.txt)
0007.134 (0) Number of backup sets in history: 6; groups (files): 1
0007.138 (0) Examining (for files) backup set with nonce=75210212c1ae, datestamp=1480641881 (Dec 02 2016 01:24:41)
0007.140 (0) This backup set remains non-empty (f=0/d=1); will retain in history
0007.143 (0) Examining (for files) backup set with nonce=d727e19e04ef, datestamp=1480607343 (Dec 01 2016 15:49:03)
0007.146 (0) This backup set remains non-empty (f=1/d=0); will retain in history
0007.149 (0) Examining (for files) backup set with nonce=761508cc16c9, datestamp=1480598621 (Dec 01 2016 13:23:41)
0007.151 (0) This backup set remains non-empty (f=0/d=1); will retain in history
0007.155 (0) Examining (for files) backup set with nonce=ed46a1cb400a, datestamp=1480558356 (Dec 01 2016 02:12:36)
0007.157 (0) This backup set remains non-empty (f=0/d=1); will retain in history
0007.159 (0) Examining (for files) backup set with nonce=9a285808a64c, datestamp=1480521063 (Nov 30 2016 15:51:03)
0007.161 (0) This backup set remains non-empty (f=1/d=0); will retain in history
0007.164 (0) Examining (for files) backup set with nonce=8ece24b0984e, datestamp=1480514543 (Nov 30 2016 14:02:23)
0007.167 (0) This backup set remains non-empty (f=0/d=1); will retain in history
0007.170 (0) Retain: saving new backup history (sets now: 6) and finishing retain operation
0007.180 (0) Resume backup (75210212c1ae, 0): finish run
0007.187 (0) Decremented the semaphore (d) by 1
0007.191 (0) Semaphore (d) unlocked
0007.194 (0) There were no errors in the uploads, so the 'resume' event (1) is being unscheduled
0007.204 (0) The backup apparently succeeded and is now complete
0007.210 (0) Fetching RSS news feed
0007.449 (0) Fetched RSS news feed; result is a: SimplePie
