0000.001 (0) Opened log file at time: Wed, 21 Oct 2015 15:08:58 +0000 on http://www.marlino.de/shop
0000.156 (0) UpdraftPlus WordPress backup plugin (https://updraftplus.com): 1.11.12 WP: 4.3.1 PHP: 5.6.9-0+deb8u1 (Linux sweb2a 3.16.0-4-amd64 #1 SMP Debian 3.16.7-ckt11-1+deb8u3 (2015-08-04) x86_64) MySQL: 5.5.37 Server: Apache/2.4.10 (Debian) safe_mode: 0 max_execution_time: 900 memory_limit: 512M (used: 71.9M | 72.8M) multisite: N mcrypt: Y LANG: C ZipArchive::addFile: Y
0000.159 (0) Free space on disk containing Updraft's temporary directory: 150201.8 Mb
0000.187 (0) Tasks: Backup files: 1 (schedule: daily) Backup DB: 1 (schedule: daily)
0000.192 (0) Requesting semaphore lock (fd)
0000.196 (0) Semaphore (fd) was stuck, set lock time to 2015-10-21 15:08:58
0000.200 (0) Semaphore (fd) reset to 1
0000.203 (0) Set semaphore last lock (fd) time to 2015-10-21 15:08:58
0000.205 (0) Semaphore lock (fd) complete
0000.214 (0) Backup run: resumption=0, nonce=73366e511f13, begun at=1445440138 (0s ago), job type=backup
0000.218 (0) Scheduling a resumption (1) after 300 seconds (1445440438) in case this run gets aborted
0000.239 (0) Checking if we have a zip executable available
0000.241 (0) Testing: /usr/bin/zip
0000.342 (0) Output: zip warning: binziptest/test.zip not found or empty
0000.345 (0) Output: adding: binziptest/subdir1/	(in=0) (out=0) (stored 0%)
0000.347 (0) Output: adding: binziptest/subdir1/subdir2/	(in=0) (out=0) (stored 0%)
0000.348 (0) Output: adding: binziptest/subdir1/subdir2/test.html	(in=128) (out=105) (deflated 18%)
0000.350 (0) Output: total bytes=128, compressed=105 -> 18% savings
0000.447 (0) Output: adding: binziptest/subdir1/subdir2/test2.html	(in=135) (out=111) (deflated 18%)
0000.450 (0) Output: total bytes=263, compressed=216 -> 18% savings
0000.474 (0) Working binary zip found: /usr/bin/zip
0000.477 (0) Zip engine: found/will use a binary zip: /usr/bin/zip
0000.479 (0) Creation of backups of directories: beginning
0000.502 (0) Beginning creation of dump of plugins (split every: 800 Mb)
0003.954 (0) Total entities for the zip file: 864 directories, 5739 files (0 skipped as non-modified), 149.4 Mb
0003.995 (0) Adding batch to zip file (UpdraftPlus_BinZip): over 2.0 seconds have passed since the last write (0 Mb, 1 (1) files added so far); re-opening (prior size: 0 Kb)
0303.174 (1) Opened log file at time: Wed, 21 Oct 2015 15:14:01 +0000 on http://www.marlino.de/shop
0303.177 (1) UpdraftPlus WordPress backup plugin (https://updraftplus.com): 1.11.12 WP: 4.3.1 PHP: 5.6.9-0+deb8u1 (Linux sweb2a 3.16.0-4-amd64 #1 SMP Debian 3.16.7-ckt11-1+deb8u3 (2015-08-04) x86_64) MySQL: 5.5.37 Server: Apache/2.4.10 (Debian) safe_mode: 0 max_execution_time: 900 memory_limit: 512M (used: 49.2M | 49.8M) multisite: N mcrypt: Y LANG: C ZipArchive::addFile: Y
0303.179 (1) Free space on disk containing Updraft's temporary directory: 150201.3 Mb
0303.183 (1) Backup run: resumption=1, nonce=73366e511f13, begun at=1445440138 (303s ago), job type=backup
0303.187 (1) Scheduling a resumption (2) after 300 seconds (1445440741) in case this run gets aborted
0303.205 (1) Checking if we have a zip executable available
0303.207 (1) Zip engine: found/will use a binary zip: /usr/bin/zip
0303.209 (1) Creation of backups of directories: had begun; will resume
0303.230 (1) Beginning creation of dump of plugins (split every: 800 Mb)
0307.952 (1) Total entities for the zip file: 864 directories, 5739 files (0 skipped as non-modified), 149.4 Mb
0308.084 (1) Adding batch to zip file (UpdraftPlus_BinZip): over 2.0 seconds have passed since the last write (0 Mb, 1 (1) files added so far); re-opening (prior size: 0 Kb)
