0000.003 (0) Opened log file at time: Mon, 13 Jun 2016 15:48:20 +0000 on http://www.marlino.de/shop
0000.022 (0) UpdraftPlus WordPress backup plugin (http://updraftplus.com): 1.9.19 WP: 4.3.4 PHP: 5.6.17-0+deb8u1 (Linux sweb2a 3.16.0-4-amd64 #1 SMP Debian 3.16.7-ckt20-1+deb8u3 (2016-01-17) x86_64) MySQL: 5.5.37-0+wheezy1-log Server: Apache/2.4.10 (Debian) safe_mode: 0 max_execution_time: 900 memory_limit: 512M (used: 46.8M | 48M) multisite: N mcrypt: Y LANG: C ZipArchive::addFile: Y
0000.030 (0) Free space on disk containing Updraft's temporary directory: 124260.6 Mb
0000.149 (0) Deleting old temporary file: backup_2016-06-04-1738_Marlino_Shop_fea30ae07b1c-plugins.zip.tmp
0000.153 (0) Deleting old temporary file: backup_2016-06-10-1811_Marlino_Shop_bb55f62a14d0-plugins.zip.tmp
0000.158 (0) Deleting old temporary file: backup_2016-06-09-1742_Marlino_Shop_765ad9e46afe-plugins.zip.tmp
0000.160 (0) Deleting old temporary file: backup_2016-05-29-1750_Marlino_Shop_44095858d955-plugins.zip.tmp
0000.163 (0) Deleting old temporary file: backup_2016-06-02-1839_Marlino_Shop_ece947d7a293-plugins.zip.tmp
0000.169 (0) Deleting old temporary file: backup_2016-06-06-1746_Marlino_Shop_9fb5d791757f-plugins.zip.tmp
0000.175 (0) Deleting old temporary file: backup_2016-06-07-1740_Marlino_Shop_e7568037ef6b-plugins.zip.tmp
0000.180 (0) Deleting old temporary file: backup_2016-06-08-1747_Marlino_Shop_d50d0529e2d8-plugins.zip.tmp
0000.183 (0) Deleting old temporary file: backup_2016-05-31-1738_Marlino_Shop_8dc5b75f071e-plugins.zip.tmp
0000.187 (0) Deleting old temporary file: backup_2016-06-11-1824_Marlino_Shop_7c0487648ad3-plugins.zip.tmp
0000.192 (0) Deleting old temporary file: backup_2016-06-05-1739_Marlino_Shop_7b71508bfca5-plugins.zip.tmp
0000.195 (0) Deleting old temporary file: backup_2016-05-30-1759_Marlino_Shop_5d920d67dbed-plugins.zip.tmp
0000.235 (0) Deleting old temporary file: backup_2016-06-01-1747_Marlino_Shop_a03f1724693b-plugins.zip.tmp
0000.237 (0) Deleting old temporary file: backup_2016-06-03-1755_Marlino_Shop_20ad75170c89-plugins.zip.tmp
0000.242 (0) Deleting old temporary file: backup_2016-05-27-1802_Marlino_Shop_04dab01b294e-plugins.zip.tmp
0000.276 (0) Tasks: Backup files: 1 (schedule: daily) Backup DB:  (schedule: daily)
0000.277 (0) Processed schedules. Tasks now: Backup files: 1 Backup DB: 1
0000.285 (0) Requesting semaphore lock (fd)
0000.288 (0) Semaphore (fd) was stuck, set lock time to 2016-06-13 15:48:21
0000.291 (0) Semaphore (fd) reset to 1
0000.293 (0) Set semaphore last lock (fd) time to 2016-06-13 15:48:21
0000.294 (0) Semaphore lock (fd) complete
0000.304 (0) Backup run: resumption=0, nonce=a0e62d5f39b3, begun at=1465832900 (1s ago), job type=backup
0000.307 (0) Scheduling a resumption (1) after 600 seconds (1465833501) in case this run gets aborted
0000.326 (0) Checking if we have a zip executable available
0000.328 (0) Testing: /usr/bin/zip
0000.374 (0) Output: zip warning: binziptest/test.zip not found or empty
0000.378 (0) Output: adding: binziptest/subdir1/	(in=0) (out=0) (stored 0%)
0000.380 (0) Output: adding: binziptest/subdir1/subdir2/	(in=0) (out=0) (stored 0%)
0000.381 (0) Output: adding: binziptest/subdir1/subdir2/test.html	(in=127) (out=105) (deflated 17%)
0000.382 (0) Output: total bytes=127, compressed=105 -> 17% savings
0000.410 (0) Output: adding: binziptest/subdir1/subdir2/test2.html	(in=134) (out=109) (deflated 19%)
0000.412 (0) Output: total bytes=261, compressed=214 -> 18% savings
0000.434 (0) Working binary zip found: /usr/bin/zip
0000.438 (0) Zip engine: found/will use a binary zip: /usr/bin/zip
0000.440 (0) Creation of backups of directories: beginning
0000.448 (0) Beginning creation of dump of plugins (split every: 800 Mb)
0003.275 (0) Total entities for the zip file: 647 directories, 4669 files (0 skipped as non-modified), 162.2 Mb
0003.395 (0) Adding batch to zip file (UpdraftPlus_BinZip): over 2.0 seconds have passed since the last write (0 Mb, 1 (1) files added so far); re-opening (prior size: 0 Kb)
0000.000 (1) Opened log file at time: Mon, 13 Jun 2016 16:09:12 +0000 on http://www.marlino.de/shop
0000.003 (1) UpdraftPlus WordPress backup plugin (http://updraftplus.com): 1.9.19 WP: 4.3.4 PHP: 5.6.17-0+deb8u1 (Linux sweb2a 3.16.0-4-amd64 #1 SMP Debian 3.16.7-ckt20-1+deb8u3 (2016-01-17) x86_64) MySQL: 5.5.37-0+wheezy1-log Server: Apache/2.4.10 (Debian) safe_mode: 0 max_execution_time: 900 memory_limit: 512M (used: 47.1M | 48M) multisite: N mcrypt: Y LANG: C ZipArchive::addFile: Y
0000.006 (1) Free space on disk containing Updraft's temporary directory: 124254.3 Mb
0000.014 (1) This backup task began over 2 days ago: aborting (1465834152.9187, )
2203.057 (0) The time we have been running (2203) is approaching the resumption interval (600) - increasing resumption interval to 2234
2203.134 (0) Zip: backup_2016-06-13-1748_Marlino_Shop_a0e62d5f39b3-plugins.zip.tmp: 100 files added (on-disk size: 137.3 Kb)
2203.156 (0) Adding batch to zip file (UpdraftPlus_BinZip): over 25 Mb added on this batch (25.4 Mb, 4669 files batched, 129 (130) added so far); re-opening (prior size: 137.3 Kb)
2232.245 (0) The time we have been running (2232.2) is approaching the resumption interval (2234) - increasing resumption interval to 2263
2232.271 (0) Adding batch to zip file (UpdraftPlus_BinZip): over 25 Mb added on this batch (25.7 Mb, 4669 files batched, 1 (131) added so far); re-opening (prior size: 137.3 Kb)
44382.789 (0) The time we have been running (44382.7) is approaching the resumption interval (2263) - increasing resumption interval to 44413
44382.843 (0) Adding batch to zip file (UpdraftPlus_BinZip): over 25 Mb added on this batch (26.3 Mb, 4669 files batched, 1 (132) added so far); re-opening (prior size: 137.3 Kb)
44860.533 (0) The time we have been running (44860.4) is approaching the resumption interval (44413) - increasing resumption interval to 44891
44860.545 (0) Adding batch to zip file (UpdraftPlus_BinZip): over 25 Mb added on this batch (26.6 Mb, 4669 files batched, 1 (133) added so far); re-opening (prior size: 137.3 Kb)
45056.348 (0) The time we have been running (45056) is approaching the resumption interval (44891) - increasing resumption interval to 45086
45056.353 (0) Adding batch to zip file (UpdraftPlus_BinZip): over 25 Mb added on this batch (26.6 Mb, 4669 files batched, 1 (134) added so far); re-opening (prior size: 137.3 Kb)
45082.943 (0) The time we have been running (45082.9) is approaching the resumption interval (45086) - increasing resumption interval to 45113
45082.969 (0) Adding batch to zip file (UpdraftPlus_BinZip): over 25 Mb added on this batch (26.9 Mb, 4669 files batched, 1 (135) added so far); re-opening (prior size: 137.3 Kb)
47982.081 (0) The time we have been running (47981.9) is approaching the resumption interval (45113) - increasing resumption interval to 48012
47982.098 (0) Adding batch to zip file (UpdraftPlus_BinZip): over 25 Mb added on this batch (27.2 Mb, 4669 files batched, 1 (136) added so far); re-opening (prior size: 137.3 Kb)
49393.138 (0) The time we have been running (49393) is approaching the resumption interval (48012) - increasing resumption interval to 49424
49393.153 (0) Adding batch to zip file (UpdraftPlus_BinZip): over 25 Mb added on this batch (27.3 Mb, 4669 files batched, 1 (137) added so far); re-opening (prior size: 137.3 Kb)
49452.671 (0) The time we have been running (49452.6) is approaching the resumption interval (49424) - increasing resumption interval to 49483
49452.723 (0) Adding batch to zip file (UpdraftPlus_BinZip): over 25 Mb added on this batch (27.5 Mb, 4669 files batched, 1 (138) added so far); re-opening (prior size: 137.3 Kb)
51582.079 (0) The time we have been running (51582) is approaching the resumption interval (49483) - increasing resumption interval to 51612
51582.087 (0) Adding batch to zip file (UpdraftPlus_BinZip): over 25 Mb added on this batch (27.5 Mb, 4669 files batched, 1 (139) added so far); re-opening (prior size: 137.3 Kb)
99823.846 (0) The time we have been running (99823.8) is approaching the resumption interval (51612) - increasing resumption interval to 99854
99823.874 (0) Adding batch to zip file (UpdraftPlus_BinZip): over 25 Mb added on this batch (27.7 Mb, 4669 files batched, 1 (140) added so far); re-opening (prior size: 137.3 Kb)
130782.471 (0) The time we have been running (130782.4) is approaching the resumption interval (99854) - increasing resumption interval to 130813
130782.482 (0) Adding batch to zip file (UpdraftPlus_BinZip): over 25 Mb added on this batch (27.9 Mb, 4669 files batched, 1 (141) added so far); re-opening (prior size: 137.3 Kb)
131341.529 (0) The time we have been running (131341.1) is approaching the resumption interval (130813) - increasing resumption interval to 131372
131341.537 (0) Adding batch to zip file (UpdraftPlus_BinZip): over 25 Mb added on this batch (28.1 Mb, 4669 files batched, 1 (142) added so far); re-opening (prior size: 137.3 Kb)
131665.023 (0) The time we have been running (131665) is approaching the resumption interval (131372) - increasing resumption interval to 131696
131665.049 (0) Adding batch to zip file (UpdraftPlus_BinZip): over 25 Mb added on this batch (28.4 Mb, 4669 files batched, 1 (143) added so far); re-opening (prior size: 137.3 Kb)
131699.768 (0) The time we have been running (131699.8) is approaching the resumption interval (131696) - increasing resumption interval to 131730
131699.795 (0) Adding batch to zip file (UpdraftPlus_BinZip): over 25 Mb added on this batch (28.4 Mb, 4669 files batched, 1 (144) added so far); re-opening (prior size: 137.3 Kb)
134383.394 (0) The time we have been running (134383.3) is approaching the resumption interval (131730) - increasing resumption interval to 134414
134383.402 (0) Adding batch to zip file (UpdraftPlus_BinZip): over 25 Mb added on this batch (28.5 Mb, 4669 files batched, 1 (145) added so far); re-opening (prior size: 137.3 Kb)
137983.051 (0) The time we have been running (137983) is approaching the resumption interval (134414) - increasing resumption interval to 138014
137983.095 (0) Adding batch to zip file (UpdraftPlus_BinZip): over 25 Mb added on this batch (28.7 Mb, 4669 files batched, 1 (146) added so far); re-opening (prior size: 137.3 Kb)
217183.895 (0) The time we have been running (217183.8) is approaching the resumption interval (138014) - increasing resumption interval to 217214
217183.932 (0) Adding batch to zip file (UpdraftPlus_BinZip): over 25 Mb added on this batch (28.8 Mb, 4669 files batched, 1 (147) added so far); re-opening (prior size: 137.3 Kb)
217671.104 (0) The time we have been running (217671.1) is approaching the resumption interval (217214) - increasing resumption interval to 217702
217671.147 (0) Adding batch to zip file (UpdraftPlus_BinZip): over 25 Mb added on this batch (29 Mb, 4669 files batched, 1 (148) added so far); re-opening (prior size: 137.3 Kb)
217868.820 (0) The time we have been running (217868.8) is approaching the resumption interval (217702) - increasing resumption interval to 217899
217868.884 (0) Adding batch to zip file (UpdraftPlus_BinZip): over 25 Mb added on this batch (29 Mb, 4669 files batched, 1 (149) added so far); re-opening (prior size: 137.3 Kb)
217904.502 (0) The time we have been running (217904.4) is approaching the resumption interval (217899) - increasing resumption interval to 217935
217904.648 (0) Adding batch to zip file (UpdraftPlus_BinZip): over 25 Mb added on this batch (29 Mb, 4669 files batched, 1 (150) added so far); re-opening (prior size: 137.3 Kb)
220782.529 (0) The time we have been running (220782.5) is approaching the resumption interval (217935) - increasing resumption interval to 220813
220782.535 (0) Adding batch to zip file (UpdraftPlus_BinZip): over 25 Mb added on this batch (29 Mb, 4669 files batched, 1 (151) added so far); re-opening (prior size: 137.3 Kb)
224382.938 (0) The time we have been running (224382.9) is approaching the resumption interval (220813) - increasing resumption interval to 224413
224382.947 (0) Adding batch to zip file (UpdraftPlus_BinZip): over 25 Mb added on this batch (29 Mb, 4669 files batched, 1 (152) added so far); re-opening (prior size: 137.3 Kb)
303584.403 (0) The time we have been running (303584.3) is approaching the resumption interval (224413) - increasing resumption interval to 303615
303584.420 (0) Adding batch to zip file (UpdraftPlus_BinZip): over 25 Mb added on this batch (29 Mb, 4669 files batched, 1 (153) added so far); re-opening (prior size: 137.3 Kb)
304131.274 (0) The time we have been running (304131.2) is approaching the resumption interval (303615) - increasing resumption interval to 304162
304131.290 (0) Adding batch to zip file (UpdraftPlus_BinZip): over 25 Mb added on this batch (29 Mb, 4669 files batched, 1 (154) added so far); re-opening (prior size: 137.3 Kb)
304322.120 (0) The time we have been running (304322.1) is approaching the resumption interval (304162) - increasing resumption interval to 304353
304322.135 (0) Adding batch to zip file (UpdraftPlus_BinZip): over 25 Mb added on this batch (29 Mb, 4669 files batched, 1 (155) added so far); re-opening (prior size: 137.3 Kb)
304346.582 (0) The time we have been running (304346.5) is approaching the resumption interval (304353) - increasing resumption interval to 304377
304346.684 (0) Adding batch to zip file (UpdraftPlus_BinZip): over 25 Mb added on this batch (29 Mb, 4669 files batched, 1 (156) added so far); re-opening (prior size: 137.3 Kb)
307182.572 (0) The time we have been running (307182.5) is approaching the resumption interval (304377) - increasing resumption interval to 307213
307182.578 (0) Adding batch to zip file (UpdraftPlus_BinZip): over 25 Mb added on this batch (29 Mb, 4669 files batched, 1 (157) added so far); re-opening (prior size: 137.3 Kb)
310782.763 (0) The time we have been running (310782.7) is approaching the resumption interval (307213) - increasing resumption interval to 310813
310782.782 (0) Adding batch to zip file (UpdraftPlus_BinZip): over 25 Mb added on this batch (29 Mb, 4669 files batched, 1 (158) added so far); re-opening (prior size: 137.3 Kb)
344082.571 (0) The time we have been running (344082.5) is approaching the resumption interval (310813) - increasing resumption interval to 344113
344082.583 (0) Adding batch to zip file (UpdraftPlus_BinZip): over 25 Mb added on this batch (29 Mb, 4669 files batched, 1 (159) added so far); re-opening (prior size: 137.3 Kb)
389981.822 (0) The time we have been running (389981.8) is approaching the resumption interval (344113) - increasing resumption interval to 390012
389981.854 (0) Adding batch to zip file (UpdraftPlus_BinZip): over 25 Mb added on this batch (29.1 Mb, 4669 files batched, 1 (160) added so far); re-opening (prior size: 137.3 Kb)
390476.688 (0) The time we have been running (390476.6) is approaching the resumption interval (390012) - increasing resumption interval to 390507
390476.694 (0) Adding batch to zip file (UpdraftPlus_BinZip): over 25 Mb added on this batch (29.1 Mb, 4669 files batched, 1 (161) added so far); re-opening (prior size: 137.3 Kb)
390688.747 (0) The time we have been running (390688.7) is approaching the resumption interval (390507) - increasing resumption interval to 390719
390688.764 (0) Adding batch to zip file (UpdraftPlus_BinZip): over 25 Mb added on this batch (29.1 Mb, 4669 files batched, 1 (162) added so far); re-opening (prior size: 137.3 Kb)
390719.583 (0) The time we have been running (390719.6) is approaching the resumption interval (390719) - increasing resumption interval to 390750
390719.788 (0) Adding batch to zip file (UpdraftPlus_BinZip): over 25 Mb added on this batch (29.1 Mb, 4669 files batched, 1 (163) added so far); re-opening (prior size: 137.3 Kb)
393582.271 (0) The time we have been running (393582.2) is approaching the resumption interval (390750) - increasing resumption interval to 393613
393582.279 (0) Adding batch to zip file (UpdraftPlus_BinZip): over 25 Mb added on this batch (29.1 Mb, 4669 files batched, 1 (164) added so far); re-opening (prior size: 137.3 Kb)
397183.182 (0) The time we have been running (397183) is approaching the resumption interval (393613) - increasing resumption interval to 397214
397183.191 (0) Adding batch to zip file (UpdraftPlus_BinZip): over 25 Mb added on this batch (29.1 Mb, 4669 files batched, 1 (165) added so far); re-opening (prior size: 137.3 Kb)
476384.779 (0) The time we have been running (476384.7) is approaching the resumption interval (397214) - increasing resumption interval to 476415
476384.790 (0) Adding batch to zip file (UpdraftPlus_BinZip): over 25 Mb added on this batch (29.1 Mb, 4669 files batched, 1 (166) added so far); re-opening (prior size: 137.3 Kb)
476930.163 (0) The time we have been running (476930.1) is approaching the resumption interval (476415) - increasing resumption interval to 476961
476930.178 (0) Adding batch to zip file (UpdraftPlus_BinZip): over 25 Mb added on this batch (29.1 Mb, 4669 files batched, 1 (167) added so far); re-opening (prior size: 137.3 Kb)
477139.910 (0) The time we have been running (477139.9) is approaching the resumption interval (476961) - increasing resumption interval to 477170
477139.953 (0) Adding batch to zip file (UpdraftPlus_BinZip): over 25 Mb added on this batch (29.1 Mb, 4669 files batched, 1 (168) added so far); re-opening (prior size: 137.3 Kb)
477160.893 (0) The time we have been running (477160.9) is approaching the resumption interval (477170) - increasing resumption interval to 477191
477160.935 (0) Adding batch to zip file (UpdraftPlus_BinZip): over 25 Mb added on this batch (29.1 Mb, 4669 files batched, 1 (169) added so far); re-opening (prior size: 137.3 Kb)
479982.769 (0) The time we have been running (479982.7) is approaching the resumption interval (477191) - increasing resumption interval to 480013
479982.780 (0) Adding batch to zip file (UpdraftPlus_BinZip): over 25 Mb added on this batch (29.1 Mb, 4669 files batched, 1 (170) added so far); re-opening (prior size: 137.3 Kb)
483582.020 (0) The time we have been running (483582) is approaching the resumption interval (480013) - increasing resumption interval to 483612
483582.027 (0) Adding batch to zip file (UpdraftPlus_BinZip): over 25 Mb added on this batch (29.1 Mb, 4669 files batched, 1 (171) added so far); re-opening (prior size: 137.3 Kb)
562783.082 (0) The time we have been running (562783) is approaching the resumption interval (483612) - increasing resumption interval to 562814
562783.090 (0) Adding batch to zip file (UpdraftPlus_BinZip): over 25 Mb added on this batch (29.1 Mb, 4669 files batched, 1 (172) added so far); re-opening (prior size: 137.3 Kb)
563343.917 (0) The time we have been running (563343.9) is approaching the resumption interval (562814) - increasing resumption interval to 563374
563343.929 (0) Adding batch to zip file (UpdraftPlus_BinZip): over 25 Mb added on this batch (29.1 Mb, 4669 files batched, 1 (173) added so far); re-opening (prior size: 137.3 Kb)
563537.216 (0) The time we have been running (563537.2) is approaching the resumption interval (563374) - increasing resumption interval to 563568
563537.275 (0) Adding batch to zip file (UpdraftPlus_BinZip): over 25 Mb added on this batch (29.1 Mb, 4669 files batched, 1 (174) added so far); re-opening (prior size: 137.3 Kb)
563558.716 (0) The time we have been running (563558.7) is approaching the resumption interval (563568) - increasing resumption interval to 563589
563558.784 (0) Adding batch to zip file (UpdraftPlus_BinZip): over 25 Mb added on this batch (29.1 Mb, 4669 files batched, 1 (175) added so far); re-opening (prior size: 137.3 Kb)
566382.930 (0) The time we have been running (566382.8) is approaching the resumption interval (563589) - increasing resumption interval to 566413
566382.959 (0) Adding batch to zip file (UpdraftPlus_BinZip): over 25 Mb added on this batch (29.1 Mb, 4669 files batched, 1 (176) added so far); re-opening (prior size: 137.3 Kb)
569982.772 (0) The time we have been running (569982.7) is approaching the resumption interval (566413) - increasing resumption interval to 570013
569982.801 (0) Adding batch to zip file (UpdraftPlus_BinZip): over 25 Mb added on this batch (29.1 Mb, 4669 files batched, 1 (177) added so far); re-opening (prior size: 137.3 Kb)
649183.630 (0) PHP event: code E_WARNING: filesize(): stat failed for /var/www/1366716627/htdocs/shop/wp-content/updraft/backup_2016-06-13-1748_Marlino_Shop_a0e62d5f39b3-plugins.zip.tmp (line 1906, wp-content/plugins/updraftplus/backup.php)
649183.704 (0) The time we have been running (649183.7) is approaching the resumption interval (570013) - increasing resumption interval to 649214
649183.717 (0) Adding batch to zip file (UpdraftPlus_BinZip): over 25 Mb added on this batch (29.1 Mb, 4669 files batched, 1 (178) added so far); re-opening (prior size: 0 Kb)
649747.304 (0) PHP event: code E_WARNING: filesize(): stat failed for /var/www/1366716627/htdocs/shop/wp-content/updraft/backup_2016-06-13-1748_Marlino_Shop_a0e62d5f39b3-plugins.zip.tmp (line 1906, wp-content/plugins/updraftplus/backup.php)
649747.345 (0) The time we have been running (649747.3) is approaching the resumption interval (649214) - increasing resumption interval to 649778
649747.390 (0) Adding batch to zip file (UpdraftPlus_BinZip): over 25 Mb added on this batch (29.1 Mb, 4669 files batched, 1 (179) added so far); re-opening (prior size: 0 Kb)
649930.789 (0) PHP event: code E_WARNING: filesize(): stat failed for /var/www/1366716627/htdocs/shop/wp-content/updraft/backup_2016-06-13-1748_Marlino_Shop_a0e62d5f39b3-plugins.zip.tmp (line 1906, wp-content/plugins/updraftplus/backup.php)
649930.832 (0) The time we have been running (649930.8) is approaching the resumption interval (649778) - increasing resumption interval to 649961
649930.878 (0) Adding batch to zip file (UpdraftPlus_BinZip): over 25 Mb added on this batch (29.1 Mb, 4669 files batched, 1 (180) added so far); re-opening (prior size: 0 Kb)
649960.902 (0) PHP event: code E_WARNING: filesize(): stat failed for /var/www/1366716627/htdocs/shop/wp-content/updraft/backup_2016-06-13-1748_Marlino_Shop_a0e62d5f39b3-plugins.zip.tmp (line 1906, wp-content/plugins/updraftplus/backup.php)
649960.916 (0) The time we have been running (649960.9) is approaching the resumption interval (649961) - increasing resumption interval to 649991
649960.922 (0) Adding batch to zip file (UpdraftPlus_BinZip): over 25 Mb added on this batch (29.1 Mb, 4669 files batched, 1 (181) added so far); re-opening (prior size: 0 Kb)
652782.999 (0) PHP event: code E_WARNING: filesize(): stat failed for /var/www/1366716627/htdocs/shop/wp-content/updraft/backup_2016-06-13-1748_Marlino_Shop_a0e62d5f39b3-plugins.zip.tmp (line 1906, wp-content/plugins/updraftplus/backup.php)
652783.091 (0) The time we have been running (652783.1) is approaching the resumption interval (649991) - increasing resumption interval to 652814
652783.105 (0) Adding batch to zip file (UpdraftPlus_BinZip): over 25 Mb added on this batch (29.1 Mb, 4669 files batched, 1 (182) added so far); re-opening (prior size: 0 Kb)
656382.520 (0) PHP event: code E_WARNING: filesize(): stat failed for /var/www/1366716627/htdocs/shop/wp-content/updraft/backup_2016-06-13-1748_Marlino_Shop_a0e62d5f39b3-plugins.zip.tmp (line 1906, wp-content/plugins/updraftplus/backup.php)
656382.585 (0) The time we have been running (656382.6) is approaching the resumption interval (652814) - increasing resumption interval to 656413
656382.609 (0) Adding batch to zip file (UpdraftPlus_BinZip): over 25 Mb added on this batch (29.1 Mb, 4669 files batched, 1 (183) added so far); re-opening (prior size: 0 Kb)
