0000.001 (0) Opened log file at time: Fri, 07 Aug 2015 15:42:26 +0000 on http://www.marlino.de/shop
0000.006 (0) UpdraftPlus WordPress backup plugin (http://updraftplus.com): 1.9.19 WP: 3.9.8 PHP: 5.4.39-0+deb7u2 (Linux sweb2b 3.2.0-4-amd64 #1 SMP Debian 3.2.57-3+deb7u2 x86_64) MySQL: 5.5.37-0+wheezy1-log Server: Apache/2.2.22 (Debian) safe_mode: 0 max_execution_time: 900 memory_limit: 512M (used: 69.4M | 70.8M) multisite: N mcrypt: Y LANG: C ZipArchive::addFile: Y
0000.009 (0) Free space on disk containing Updraft's temporary directory: 179189.4 Mb
0000.034 (0) Tasks: Backup files:  (schedule: daily) Backup DB: 1 (schedule: daily)
0000.036 (0) Processed schedules. Tasks now: Backup files:  Backup DB: 
0000.041 (0) Decremented the semaphore (fd) by 1
0000.044 (0) Semaphore (fd) still locked
0000.045 (0) The backup apparently succeeded and is now complete
0000.047 (0) No email will be sent - this backup set was empty.
0000.049 (0) Die Sicherung war anscheinend erfolgreich und ist nun vollständig
