0000.004 (0) Opened log file at time: Fri, 21 Nov 2014 15:44:41 +0000 on http://www.marlino.de/shop
0000.014 (0) UpdraftPlus WordPress backup plugin (http://updraftplus.com): 1.9.19 WP: 3.9.3 PHP: 5.4.4-14+deb7u14 (Linux sweb2b 3.2.0-4-amd64 #1 SMP Debian 3.2.57-3+deb7u2 x86_64) MySQL: 5.5.37-0+wheezy1-log Server: Apache/2.2.22 (Debian) safe_mode: 0 max_execution_time: 900 memory_limit: 512M (used: 38.7M | 39.5M) multisite: N mcrypt: Y LANG: C ZipArchive::addFile: Y
0000.016 (0) Free space on disk containing Updraft's temporary directory: 116092.8 Mb
0000.026 (0) Tasks: Backup files:  (schedule: daily) Backup DB: 1 (schedule: daily)
0000.028 (0) Processed schedules. Tasks now: Backup files:  Backup DB: 
0000.033 (0) The backup apparently succeeded and is now complete
0000.035 (0) No email will be sent - this backup set was empty.
0000.037 (0) Die Sicherung war anscheinend erfolgreich und ist nun vollständig
