0000.006 (0) Opened log file at time: Tue, 01 Dec 2015 15:37:39 +0000 on http://www.marlino.de/shop
0000.025 (0) UpdraftPlus WordPress backup plugin (http://updraftplus.com): 1.9.19 WP: 4.3.1 PHP: 5.6.9-0+deb8u1 (Linux sweb2a 3.16.0-4-amd64 #1 SMP Debian 3.16.7-ckt11-1+deb8u3 (2015-08-04) x86_64) MySQL: 5.5.37-0+wheezy1-log Server: Apache/2.4.10 (Debian) safe_mode: 0 max_execution_time: 900 memory_limit: 512M (used: 46.7M | 47.8M) multisite: N mcrypt: Y LANG: C ZipArchive::addFile: Y
0000.028 (0) Free space on disk containing Updraft's temporary directory: 149926.8 Mb
0000.134 (0) Tasks: Backup files: 1 (schedule: daily) Backup DB:  (schedule: daily)
0000.139 (0) Processed schedules. Tasks now: Backup files: 1 Backup DB: 1
0000.174 (0) Requesting semaphore lock (fd)
0000.195 (0) Semaphore (fd) was stuck, set lock time to 2015-12-01 15:37:39
0000.214 (0) Semaphore (fd) reset to 1
0000.223 (0) Set semaphore last lock (fd) time to 2015-12-01 15:37:39
0000.226 (0) Semaphore lock (fd) complete
0000.268 (0) Backup run: resumption=0, nonce=57d27fbb93d6, begun at=1448984259 (0s ago), job type=backup
0000.298 (0) Scheduling a resumption (1) after 600 seconds (1448984859) in case this run gets aborted
0000.416 (0) Checking if we have a zip executable available
0000.428 (0) Testing: /usr/bin/zip
0000.470 (0) Output: zip warning: binziptest/test.zip not found or empty
0000.474 (0) Output: adding: binziptest/subdir1/	(in=0) (out=0) (stored 0%)
0000.476 (0) Output: adding: binziptest/subdir1/subdir2/	(in=0) (out=0) (stored 0%)
0000.477 (0) Output: adding: binziptest/subdir1/subdir2/test.html	(in=127) (out=105) (deflated 17%)
0000.493 (0) Output: total bytes=127, compressed=105 -> 17% savings
0000.540 (0) Output: adding: binziptest/subdir1/subdir2/test2.html	(in=134) (out=109) (deflated 19%)
0000.543 (0) Output: total bytes=261, compressed=214 -> 18% savings
0000.600 (0) Working binary zip found: /usr/bin/zip
0000.605 (0) Zip engine: found/will use a binary zip: /usr/bin/zip
0000.607 (0) Creation of backups of directories: beginning
0000.622 (0) Beginning creation of dump of plugins (split every: 800 Mb)
0000.645 (0) Deleting old temporary file: ziwXGwcF
0005.384 (0) Total entities for the zip file: 647 directories, 4668 files (0 skipped as non-modified), 162.1 Mb
0005.409 (0) Adding batch to zip file (UpdraftPlus_BinZip): over 2.0 seconds have passed since the last write (0 Mb, 1 (1) files added so far); re-opening (prior size: 0 Kb)
0000.000 (1) Opened log file at time: Tue, 01 Dec 2015 16:06:17 +0000 on http://www.marlino.de/shop
0000.002 (1) UpdraftPlus WordPress backup plugin (http://updraftplus.com): 1.9.19 WP: 4.3.1 PHP: 5.6.9-0+deb8u1 (Linux sweb2a 3.16.0-4-amd64 #1 SMP Debian 3.16.7-ckt11-1+deb8u3 (2015-08-04) x86_64) MySQL: 5.5.37-0+wheezy1-log Server: Apache/2.4.10 (Debian) safe_mode: 0 max_execution_time: 900 memory_limit: 512M (used: 46.4M | 47M) multisite: N mcrypt: Y LANG: C ZipArchive::addFile: Y
0000.004 (1) Free space on disk containing Updraft's temporary directory: 149918.8 Mb
0000.006 (1) This backup task began over 2 days ago: aborting (1448985977.607, )
48626.221 (0) The time we have been running (48626.2) is approaching the resumption interval (600) - increasing resumption interval to 48657
48626.318 (0) Zip: backup_2015-12-01-1737_Marlino_Shop_57d27fbb93d6-plugins.zip.tmp: 100 files added (on-disk size: 137.3 Kb)
48626.351 (0) Adding batch to zip file (UpdraftPlus_BinZip): over 25 Mb added on this batch (25.4 Mb, 4668 files batched, 129 (130) added so far); re-opening (prior size: 137.3 Kb)
49060.207 (0) The time we have been running (49060.2) is approaching the resumption interval (48657) - increasing resumption interval to 49091
49060.216 (0) Adding batch to zip file (UpdraftPlus_BinZip): over 25 Mb added on this batch (25.7 Mb, 4668 files batched, 1 (131) added so far); re-opening (prior size: 137.3 Kb)
49279.191 (0) The time we have been running (49279.1) is approaching the resumption interval (49091) - increasing resumption interval to 49310
49279.240 (0) Adding batch to zip file (UpdraftPlus_BinZip): over 25 Mb added on this batch (26.3 Mb, 4668 files batched, 1 (132) added so far); re-opening (prior size: 137.3 Kb)
49319.699 (0) The time we have been running (49319.7) is approaching the resumption interval (49310) - increasing resumption interval to 49350
49319.835 (0) Adding batch to zip file (UpdraftPlus_BinZip): over 25 Mb added on this batch (26.6 Mb, 4668 files batched, 1 (133) added so far); re-opening (prior size: 137.3 Kb)
52224.258 (0) The time we have been running (52224.2) is approaching the resumption interval (49350) - increasing resumption interval to 52255
52224.277 (0) Adding batch to zip file (UpdraftPlus_BinZip): over 25 Mb added on this batch (26.6 Mb, 4668 files batched, 1 (134) added so far); re-opening (prior size: 137.3 Kb)
55824.112 (0) The time we have been running (55824) is approaching the resumption interval (52255) - increasing resumption interval to 55855
55824.146 (0) Adding batch to zip file (UpdraftPlus_BinZip): over 25 Mb added on this batch (26.9 Mb, 4668 files batched, 1 (135) added so far); re-opening (prior size: 137.3 Kb)
135027.076 (0) The time we have been running (135027) is approaching the resumption interval (55855) - increasing resumption interval to 135057
135027.111 (0) Adding batch to zip file (UpdraftPlus_BinZip): over 25 Mb added on this batch (27.2 Mb, 4668 files batched, 1 (136) added so far); re-opening (prior size: 137.3 Kb)
135404.098 (0) The time we have been running (135404) is approaching the resumption interval (135057) - increasing resumption interval to 135435
135404.134 (0) Adding batch to zip file (UpdraftPlus_BinZip): over 25 Mb added on this batch (27.3 Mb, 4668 files batched, 1 (137) added so far); re-opening (prior size: 137.3 Kb)
135597.349 (0) The time we have been running (135597.3) is approaching the resumption interval (135435) - increasing resumption interval to 135628
135597.366 (0) Adding batch to zip file (UpdraftPlus_BinZip): over 25 Mb added on this batch (27.5 Mb, 4668 files batched, 1 (138) added so far); re-opening (prior size: 137.3 Kb)
135634.093 (0) The time we have been running (135634) is approaching the resumption interval (135628) - increasing resumption interval to 135664
135634.144 (0) Adding batch to zip file (UpdraftPlus_BinZip): over 25 Mb added on this batch (27.5 Mb, 4668 files batched, 1 (139) added so far); re-opening (prior size: 137.3 Kb)
138624.970 (0) The time we have been running (138624.8) is approaching the resumption interval (135664) - increasing resumption interval to 138655
138625.008 (0) Adding batch to zip file (UpdraftPlus_BinZip): over 25 Mb added on this batch (27.7 Mb, 4668 files batched, 1 (140) added so far); re-opening (prior size: 137.3 Kb)
142224.493 (0) The time we have been running (142224.3) is approaching the resumption interval (138655) - increasing resumption interval to 142255
142224.508 (0) Adding batch to zip file (UpdraftPlus_BinZip): over 25 Mb added on this batch (27.9 Mb, 4668 files batched, 1 (141) added so far); re-opening (prior size: 137.3 Kb)
221426.755 (0) The time we have been running (221426.7) is approaching the resumption interval (142255) - increasing resumption interval to 221457
221426.769 (0) Adding batch to zip file (UpdraftPlus_BinZip): over 25 Mb added on this batch (28.1 Mb, 4668 files batched, 1 (142) added so far); re-opening (prior size: 137.3 Kb)
221812.112 (0) The time we have been running (221812.1) is approaching the resumption interval (221457) - increasing resumption interval to 221843
221812.138 (0) Adding batch to zip file (UpdraftPlus_BinZip): over 25 Mb added on this batch (28.4 Mb, 4668 files batched, 1 (143) added so far); re-opening (prior size: 137.3 Kb)
221997.556 (0) The time we have been running (221997.5) is approaching the resumption interval (221843) - increasing resumption interval to 222028
221997.602 (0) Adding batch to zip file (UpdraftPlus_BinZip): over 25 Mb added on this batch (28.4 Mb, 4668 files batched, 1 (144) added so far); re-opening (prior size: 137.3 Kb)
222034.213 (0) The time we have been running (222034.2) is approaching the resumption interval (222028) - increasing resumption interval to 222065
222034.312 (0) Adding batch to zip file (UpdraftPlus_BinZip): over 25 Mb added on this batch (28.5 Mb, 4668 files batched, 1 (145) added so far); re-opening (prior size: 137.3 Kb)
225024.988 (0) The time we have been running (225025) is approaching the resumption interval (222065) - increasing resumption interval to 225055
225025.006 (0) Adding batch to zip file (UpdraftPlus_BinZip): over 25 Mb added on this batch (28.7 Mb, 4668 files batched, 1 (146) added so far); re-opening (prior size: 137.3 Kb)
228625.397 (0) The time we have been running (228625.3) is approaching the resumption interval (225055) - increasing resumption interval to 228656
228625.425 (0) Adding batch to zip file (UpdraftPlus_BinZip): over 25 Mb added on this batch (28.8 Mb, 4668 files batched, 1 (147) added so far); re-opening (prior size: 137.3 Kb)
307826.612 (0) The time we have been running (307826.4) is approaching the resumption interval (228656) - increasing resumption interval to 307857
307826.635 (0) Adding batch to zip file (UpdraftPlus_BinZip): over 25 Mb added on this batch (29 Mb, 4668 files batched, 1 (148) added so far); re-opening (prior size: 137.3 Kb)
308216.433 (0) The time we have been running (308216.2) is approaching the resumption interval (307857) - increasing resumption interval to 308247
308216.454 (0) Adding batch to zip file (UpdraftPlus_BinZip): over 25 Mb added on this batch (29 Mb, 4668 files batched, 1 (149) added so far); re-opening (prior size: 137.3 Kb)
308409.301 (0) The time we have been running (308409.3) is approaching the resumption interval (308247) - increasing resumption interval to 308440
308409.403 (0) Adding batch to zip file (UpdraftPlus_BinZip): over 25 Mb added on this batch (29 Mb, 4668 files batched, 1 (150) added so far); re-opening (prior size: 137.3 Kb)
308441.119 (0) The time we have been running (308441) is approaching the resumption interval (308440) - increasing resumption interval to 308472
308441.289 (0) Adding batch to zip file (UpdraftPlus_BinZip): over 25 Mb added on this batch (29 Mb, 4668 files batched, 1 (151) added so far); re-opening (prior size: 137.3 Kb)
311426.014 (0) The time we have been running (311424.9) is approaching the resumption interval (308472) - increasing resumption interval to 311455
311426.041 (0) Adding batch to zip file (UpdraftPlus_BinZip): over 25 Mb added on this batch (29 Mb, 4668 files batched, 1 (152) added so far); re-opening (prior size: 137.3 Kb)
315024.375 (0) The time we have been running (315024.2) is approaching the resumption interval (311455) - increasing resumption interval to 315055
315024.432 (0) Adding batch to zip file (UpdraftPlus_BinZip): over 25 Mb added on this batch (29 Mb, 4668 files batched, 1 (153) added so far); re-opening (prior size: 137.3 Kb)
394226.330 (0) The time we have been running (394226.2) is approaching the resumption interval (315055) - increasing resumption interval to 394257
394226.366 (0) Adding batch to zip file (UpdraftPlus_BinZip): over 25 Mb added on this batch (29 Mb, 4668 files batched, 1 (154) added so far); re-opening (prior size: 137.3 Kb)
394635.985 (0) The time we have been running (394636) is approaching the resumption interval (394257) - increasing resumption interval to 394666
394636.010 (0) Adding batch to zip file (UpdraftPlus_BinZip): over 25 Mb added on this batch (29 Mb, 4668 files batched, 1 (155) added so far); re-opening (prior size: 137.3 Kb)
394829.764 (0) The time we have been running (394829.7) is approaching the resumption interval (394666) - increasing resumption interval to 394860
394829.831 (0) Adding batch to zip file (UpdraftPlus_BinZip): over 25 Mb added on this batch (29 Mb, 4668 files batched, 1 (156) added so far); re-opening (prior size: 137.3 Kb)
394852.702 (0) The time we have been running (394852.7) is approaching the resumption interval (394860) - increasing resumption interval to 394883
394852.883 (0) Adding batch to zip file (UpdraftPlus_BinZip): over 25 Mb added on this batch (29 Mb, 4668 files batched, 1 (157) added so far); re-opening (prior size: 137.3 Kb)
397825.513 (0) The time we have been running (397824.4) is approaching the resumption interval (394883) - increasing resumption interval to 397855
397825.557 (0) Adding batch to zip file (UpdraftPlus_BinZip): over 25 Mb added on this batch (29 Mb, 4668 files batched, 1 (158) added so far); re-opening (prior size: 137.3 Kb)
401425.271 (0) The time we have been running (401424.8) is approaching the resumption interval (397855) - increasing resumption interval to 401455
401425.299 (0) Adding batch to zip file (UpdraftPlus_BinZip): over 25 Mb added on this batch (29 Mb, 4668 files batched, 1 (159) added so far); re-opening (prior size: 137.3 Kb)
480626.198 (0) The time we have been running (480626) is approaching the resumption interval (401455) - increasing resumption interval to 480657
480626.243 (0) Adding batch to zip file (UpdraftPlus_BinZip): over 25 Mb added on this batch (29.1 Mb, 4668 files batched, 1 (160) added so far); re-opening (prior size: 137.3 Kb)
481029.437 (0) The time we have been running (481029.4) is approaching the resumption interval (480657) - increasing resumption interval to 481060
481029.468 (0) Adding batch to zip file (UpdraftPlus_BinZip): over 25 Mb added on this batch (29.1 Mb, 4668 files batched, 1 (161) added so far); re-opening (prior size: 137.3 Kb)
481226.677 (0) The time we have been running (481226.5) is approaching the resumption interval (481060) - increasing resumption interval to 481257
481226.771 (0) Adding batch to zip file (UpdraftPlus_BinZip): over 25 Mb added on this batch (29.1 Mb, 4668 files batched, 1 (162) added so far); re-opening (prior size: 137.3 Kb)
481250.573 (0) The time we have been running (481250.5) is approaching the resumption interval (481257) - increasing resumption interval to 481281
481250.655 (0) Adding batch to zip file (UpdraftPlus_BinZip): over 25 Mb added on this batch (29.1 Mb, 4668 files batched, 1 (163) added so far); re-opening (prior size: 137.3 Kb)
484224.230 (0) The time we have been running (484224) is approaching the resumption interval (481281) - increasing resumption interval to 484254
484224.295 (0) Adding batch to zip file (UpdraftPlus_BinZip): over 25 Mb added on this batch (29.1 Mb, 4668 files batched, 1 (164) added so far); re-opening (prior size: 137.3 Kb)
487825.583 (0) The time we have been running (487825.2) is approaching the resumption interval (484254) - increasing resumption interval to 487856
487825.653 (0) Adding batch to zip file (UpdraftPlus_BinZip): over 25 Mb added on this batch (29.1 Mb, 4668 files batched, 1 (165) added so far); re-opening (prior size: 137.3 Kb)
