0000.012 (0) Opened log file at time: Mon, 20 Jun 2016 18:45:44 +0000 on http://www.marlino.de/shop
0000.030 (0) UpdraftPlus WordPress backup plugin (http://updraftplus.com): 1.9.19 WP: 4.3.4 PHP: 5.6.17-0+deb8u1 (Linux sweb2a 3.16.0-4-amd64 #1 SMP Debian 3.16.7-ckt20-1+deb8u3 (2016-01-17) x86_64) MySQL: 5.5.37-0+wheezy1-log Server: Apache/2.4.10 (Debian) safe_mode: 0 max_execution_time: 900 memory_limit: 512M (used: 46.7M | 47.5M) multisite: N mcrypt: Y LANG: C ZipArchive::addFile: Y
0000.032 (0) Free space on disk containing Updraft's temporary directory: 119349.4 Mb
0000.133 (0) Deleting old temporary file: backup_2016-06-19-1837_Marlino_Shop_3cf1478a6fec-plugins.zip.tmp
0000.136 (0) Deleting old temporary file: backup_2016-06-17-1802_Marlino_Shop_0011b727f660-plugins.zip.tmp
0000.139 (0) Deleting old temporary file: backup_2016-06-14-1850_Marlino_Shop_3003f0d91299-plugins.zip.tmp
0000.143 (0) Deleting old temporary file: backup_2016-06-16-1748_Marlino_Shop_e07c780b7e9a-plugins.zip.tmp
0000.147 (0) Deleting old temporary file: backup_2016-06-12-1741_Marlino_Shop_2b7c26e55584-plugins.zip.tmp
0000.149 (0) Deleting old temporary file: backup_2016-06-13-1748_Marlino_Shop_a0e62d5f39b3-plugins.zip.tmp
0000.157 (0) Deleting old temporary file: backup_2016-06-18-1818_Marlino_Shop_ad169e760673-plugins.zip.tmp
0000.192 (0) Deleting old temporary file: backup_2016-06-15-1747_Marlino_Shop_1bdaebdd858a-plugins.zip.tmp
0000.223 (0) Tasks: Backup files:  (schedule: daily) Backup DB: 1 (schedule: daily)
0000.224 (0) Processed schedules. Tasks now: Backup files:  Backup DB: 
0000.228 (0) The backup apparently succeeded and is now complete
0000.230 (0) No email will be sent - this backup set was empty.
0000.233 (0) Die Sicherung war anscheinend erfolgreich und ist nun vollständig
